2019-07-19 09:23:43.955:INFO:oejs.Server:main: jetty-9.4.8.v20171121, build timestamp: 2017-11-21T19:27:37-02:00, git hash: 82b8fb23f757335bb3329d540ce37a2a2615f0a8
2019-07-19 09:23:43.992:INFO:oejs.AbstractNCSARequestLog:main: Opened /home/matheus/ahh/xwiki/data/logs/2019_07_19.request.log
2019-07-19 09:23:43.995:INFO:oejdp.ScanningAppProvider:main: Deployment monitor [file:///home/matheus/ahh/xwiki/jetty/contexts/] at interval 0
2019-07-19 09:23:44.216:INFO:oejs.session:main: DefaultSessionIdManager workerName=node0
2019-07-19 09:23:44.216:INFO:oejs.session:main: No SessionScavenger set, using defaults
2019-07-19 09:23:44.220:INFO:oejs.session:main: Scavenging every 600000ms
2019-07-19 09:23:44.257:INFO:oejsh.ContextHandler:main: Started o.e.j.w.WebAppContext@10bdf5e5{/,file:///home/matheus/ahh/xwiki/webapps/root/,AVAILABLE}{/root}
