2019-07-19 09:45:26.336:INFO:oejs.Server:main: jetty-9.4.8.v20171121, build timestamp: 2017-11-21T19:27:37-02:00, git hash: 82b8fb23f757335bb3329d540ce37a2a2615f0a8
2019-07-19 09:45:26.361:INFO:oejs.AbstractNCSARequestLog:main: Opened /home/matheus/ahh/xwiki/data/logs/2019_07_19.request.log
2019-07-19 09:45:26.366:INFO:oejdp.ScanningAppProvider:main: Deployment monitor [file:///home/matheus/ahh/xwiki/jetty/contexts/] at interval 0
2019-07-19 09:45:26.577:INFO:oejs.session:main: DefaultSessionIdManager workerName=node0
2019-07-19 09:45:26.578:INFO:oejs.session:main: No SessionScavenger set, using defaults
2019-07-19 09:45:26.581:INFO:oejs.session:main: Scavenging every 600000ms
2019-07-19 09:45:26.617:INFO:oejsh.ContextHandler:main: Started o.e.j.w.WebAppContext@10bdf5e5{/,file:///home/matheus/ahh/xwiki/webapps/root/,AVAILABLE}{/root}
2019-07-19 09:45:27.292:WARN:oeja.AnnotationParser:main: Unknown asm runtime version, assuming version 393216
2019-07-19 09:45:27.296:INFO:oeja.AnnotationConfiguration:main: Scanning elapsed time=3ms
2019-07-19 09:45:34,630 [main] INFO  iPropertiesConfigurationSource - loading xwiki.properties from file:/home/matheus/ahh/xwiki/webapps/xwiki/WEB-INF/xwiki.properties 
2019-07-19 09:45:34,808 [main] INFO  o.x.e.i.ServletEnvironment     - Using permanent directory [data] 
2019-07-19 09:45:41,993 [main] INFO  o.x.s.s.i.EmbeddedSolrInstance - Starting embedded Solr server... 
2019-07-19 09:45:41,997 [main] INFO  o.x.s.s.i.EmbeddedSolrInstance - Using Solr home directory: [data/solr] 
2019-07-19 09:45:44,212 [coreLoadExecutor-6-thread-1] WARN  o.a.s.c.SolrResourceLoader     - Solr loaded a deprecated plugin/analysis class [solr.SynonymFilterFactory]. Please consult documentation how to replace it accordingly. 
2019-07-19 09:45:47,892 [main] INFO  o.x.s.s.i.EmbeddedSolrInstance - Started embedded Solr server. 
2019-07-19 09:45:50.706:INFO:oejsh.ContextHandler:main: Started o.e.j.w.WebAppContext@12c8a2c0{/xwiki,file:///home/matheus/ahh/xwiki/webapps/xwiki/,AVAILABLE}{/xwiki}
2019-07-19 09:45:50.730:INFO:oejs.AbstractConnector:main: Started ServerConnector@6e5a77ef{HTTP/1.1,[http/1.1]}{0.0.0.0:8080}
2019-07-19 09:45:50.731:INFO:oejs.Server:main: Started @25247ms
2019-07-19 09:45:50.731:INFO:oxtjl.NotifyListener:main: ----------------------------------
2019-07-19 09:45:50.733:INFO:oxtjl.NotifyListener:main: O servidor foi iniciado. Agora você pode acessar o seu wiki, digitando http://localhost:8080/ no seu browser.
2019-07-19 09:45:50.733:INFO:oxtjl.NotifyListener:main: ----------------------------------
2019-07-19 09:46:00,579 [Core extension repository updater] ERROR aultExtensionRepositoryManager - Unexpected error when trying to find extension [org.eclipse.jetty:jetty-xml/9.4.8.v20171121] in repository [maven-xwiki:maven:http://nexus.xwiki.org/nexus/content/groups/public] 
org.xwiki.extension.ResolveException: Failed to resolve artifact [org.eclipse.jetty:jetty-xml:jar:9.4.8.v20171121] descriptor
	at org.xwiki.extension.repository.aether.internal.AetherExtensionRepository.resolveMaven(AetherExtensionRepository.java:403)
	at org.xwiki.extension.repository.aether.internal.AetherExtensionRepository.resolveMaven(AetherExtensionRepository.java:386)
	at org.xwiki.extension.repository.aether.internal.AetherExtensionRepository.resolveMaven(AetherExtensionRepository.java:380)
	at org.xwiki.extension.repository.aether.internal.AetherExtensionRepository.resolve(AetherExtensionRepository.java:186)
	at org.xwiki.extension.repository.internal.DefaultExtensionRepositoryManager.resolve(DefaultExtensionRepositoryManager.java:286)
	at org.xwiki.extension.repository.internal.core.DefaultCoreExtensionScanner.updateExtensions(DefaultCoreExtensionScanner.java:116)
	at org.xwiki.extension.repository.internal.core.DefaultCoreExtensionRepository$1.run(DefaultCoreExtensionRepository.java:138)
	at java.lang.Thread.run(Thread.java:748)
Caused by: org.eclipse.aether.resolution.ArtifactResolutionException: Could not transfer artifact org.eclipse.jetty:jetty-xml:pom:9.4.8.v20171121 from/to maven-xwiki (http://nexus.xwiki.org/nexus/content/groups/public): Connect to nexus.xwiki.org:80 timed out
	at org.eclipse.aether.internal.impl.DefaultArtifactResolver.resolve(DefaultArtifactResolver.java:444)
	at org.eclipse.aether.internal.impl.DefaultArtifactResolver.resolveArtifacts(DefaultArtifactResolver.java:246)
	at org.eclipse.aether.internal.impl.DefaultArtifactResolver.resolveArtifact(DefaultArtifactResolver.java:223)
	at org.xwiki.extension.repository.aether.internal.AetherExtensionRepository.loadPom(AetherExtensionRepository.java:514)
	at org.xwiki.extension.repository.aether.internal.AetherExtensionRepository.resolveMaven(AetherExtensionRepository.java:397)
	... 7 common frames omitted
Caused by: org.eclipse.aether.transfer.ArtifactTransferException: Could not transfer artifact org.eclipse.jetty:jetty-xml:pom:9.4.8.v20171121 from/to maven-xwiki (http://nexus.xwiki.org/nexus/content/groups/public): Connect to nexus.xwiki.org:80 timed out
	at org.eclipse.aether.connector.basic.ArtifactTransportListener.transferFailed(ArtifactTransportListener.java:43)
	at org.eclipse.aether.connector.basic.BasicRepositoryConnector$TaskRunner.run(BasicRepositoryConnector.java:355)
	at org.eclipse.aether.util.concurrency.RunnableErrorForwarder$1.run(RunnableErrorForwarder.java:67)
	at org.eclipse.aether.connector.basic.BasicRepositoryConnector$DirectExecutor.execute(BasicRepositoryConnector.java:581)
	at org.eclipse.aether.connector.basic.BasicRepositoryConnector.get(BasicRepositoryConnector.java:249)
	at org.eclipse.aether.internal.impl.DefaultArtifactResolver.performDownloads(DefaultArtifactResolver.java:520)
	at org.eclipse.aether.internal.impl.DefaultArtifactResolver.resolve(DefaultArtifactResolver.java:421)
	... 11 common frames omitted
Caused by: org.apache.http.conn.ConnectTimeoutException: Connect to nexus.xwiki.org:80 timed out
	at org.apache.http.conn.scheme.PlainSocketFactory.connectSocket(PlainSocketFactory.java:123)
	at org.apache.http.impl.conn.DefaultClientConnectionOperator.openConnection(DefaultClientConnectionOperator.java:180)
	at org.apache.http.impl.conn.ManagedClientConnectionImpl.open(ManagedClientConnectionImpl.java:326)
	at org.apache.http.impl.client.DefaultRequestDirector.tryConnect(DefaultRequestDirector.java:610)
	at org.apache.http.impl.client.DefaultRequestDirector.execute(DefaultRequestDirector.java:445)
	at org.apache.http.impl.client.AbstractHttpClient.doExecute(AbstractHttpClient.java:835)
	at org.apache.http.impl.client.CloseableHttpClient.execute(CloseableHttpClient.java:72)
	at org.apache.http.impl.client.CloseableHttpClient.execute(CloseableHttpClient.java:56)
	at org.apache.http.impl.client.DecompressingHttpClient.execute(DecompressingHttpClient.java:164)
	at org.eclipse.aether.transport.http.HttpTransporter.execute(HttpTransporter.java:318)
	at org.eclipse.aether.transport.http.HttpTransporter.implGet(HttpTransporter.java:274)
	at org.eclipse.aether.spi.connector.transport.AbstractTransporter.get(AbstractTransporter.java:59)
	at org.eclipse.aether.connector.basic.BasicRepositoryConnector$GetTaskRunner.runTask(BasicRepositoryConnector.java:447)
	at org.eclipse.aether.connector.basic.BasicRepositoryConnector$TaskRunner.run(BasicRepositoryConnector.java:350)
	... 16 common frames omitted
2019-07-19 09:46:01,570 [XWiki initialization] INFO  .HibernateDataMigrationManager - Storage schema updates and data migrations are enabled 
2019-07-19 09:46:02,056 [XWiki initialization] INFO  .HibernateDataMigrationManager - No data migration to apply for wiki [xwiki] currently in version [1004001] 
2019-07-19 09:46:02,057 [XWiki initialization] INFO  .HibernateDataMigrationManager - Checking Hibernate mapping and updating schema if needed for wiki [xwiki] 
2019-07-19 09:46:07,722 [solr/indexer job group daemon thread - org.xwiki.search.solr.internal.job.IndexerJob@4ab1a2af] INFO  o.x.s.s.i.j.IndexerJob         - Starting job of type [solr.indexer] with identifier [[solr, indexer]] 
2019-07-19 09:46:09,248 [solr/indexer job group daemon thread - org.xwiki.search.solr.internal.job.IndexerJob@4ab1a2af] INFO  o.x.s.s.i.j.IndexerJob         - 34 documents added, 35 deleted and 4 updated during the synchronization of the Solr index. 
2019-07-19 09:46:09,259 [solr/indexer job group daemon thread - org.xwiki.search.solr.internal.job.IndexerJob@4ab1a2af] INFO  o.x.s.s.i.j.IndexerJob         - Finished job of type [solr.indexer] with identifier [[solr, indexer]] 
2019-07-19 09:46:11,061 [XWiki Solr index thread] ERROR .DocumentSolrMetadataExtractor - Failed to retrieve the content of attachment [Attachment xwiki:Main.WebHome@image-20190712103338-1.jpeg] 
com.xpn.xwiki.XWikiException: Error number 3002 in 3: The attachment could not be found in the filesystem attachment store (/home/matheus/ahh/xwiki/data/storage/xwiki/%4Dain/%57eb%48ome/~this/attachments/image-20190712103338-1.jpeg/image-20190712103338-1.jpeg).

	at org.xwiki.store.legacy.store.internal.FilesystemAttachmentStore.loadAttachmentContent(FilesystemAttachmentStore.java:213)
	at com.xpn.xwiki.doc.XWikiAttachment.loadAttachmentContent(XWikiAttachment.java:1060)
	at com.xpn.xwiki.doc.XWikiAttachment.reloadAttachmentContent(XWikiAttachment.java:883)
	at com.xpn.xwiki.doc.XWikiAttachment.getContentInputStream(XWikiAttachment.java:861)
	at org.xwiki.search.solr.internal.metadata.AbstractSolrMetadataExtractor.getContentAsText(AbstractSolrMetadataExtractor.java:506)
	at org.xwiki.search.solr.internal.metadata.DocumentSolrMetadataExtractor.setAttachment(DocumentSolrMetadataExtractor.java:281)
	at org.xwiki.search.solr.internal.metadata.DocumentSolrMetadataExtractor.setAttachments(DocumentSolrMetadataExtractor.java:261)
	at org.xwiki.search.solr.internal.metadata.DocumentSolrMetadataExtractor.setExtras(DocumentSolrMetadataExtractor.java:187)
	at org.xwiki.search.solr.internal.metadata.DocumentSolrMetadataExtractor.setFieldsInternal(DocumentSolrMetadataExtractor.java:135)
	at org.xwiki.search.solr.internal.metadata.AbstractSolrMetadataExtractor.getSolrDocument(AbstractSolrMetadataExtractor.java:133)
	at org.xwiki.search.solr.internal.DefaultSolrIndexer.getSolrDocument(DefaultSolrIndexer.java:504)
	at org.xwiki.search.solr.internal.DefaultSolrIndexer.processBatch(DefaultSolrIndexer.java:411)
	at org.xwiki.search.solr.internal.DefaultSolrIndexer.run(DefaultSolrIndexer.java:377)
	at java.lang.Thread.run(Thread.java:748)
2019-07-19 09:46:11,062 [XWiki Solr index thread] ERROR .DocumentSolrMetadataExtractor - Failed to retrieve the content of attachment [Attachment xwiki:Main.WebHome@image-20190712103409-2.jpeg] 
com.xpn.xwiki.XWikiException: Error number 3002 in 3: The attachment could not be found in the filesystem attachment store (/home/matheus/ahh/xwiki/data/storage/xwiki/%4Dain/%57eb%48ome/~this/attachments/image-20190712103409-2.jpeg/image-20190712103409-2.jpeg).

	at org.xwiki.store.legacy.store.internal.FilesystemAttachmentStore.loadAttachmentContent(FilesystemAttachmentStore.java:213)
	at com.xpn.xwiki.doc.XWikiAttachment.loadAttachmentContent(XWikiAttachment.java:1060)
	at com.xpn.xwiki.doc.XWikiAttachment.reloadAttachmentContent(XWikiAttachment.java:883)
	at com.xpn.xwiki.doc.XWikiAttachment.getContentInputStream(XWikiAttachment.java:861)
	at org.xwiki.search.solr.internal.metadata.AbstractSolrMetadataExtractor.getContentAsText(AbstractSolrMetadataExtractor.java:506)
	at org.xwiki.search.solr.internal.metadata.DocumentSolrMetadataExtractor.setAttachment(DocumentSolrMetadataExtractor.java:281)
	at org.xwiki.search.solr.internal.metadata.DocumentSolrMetadataExtractor.setAttachments(DocumentSolrMetadataExtractor.java:261)
	at org.xwiki.search.solr.internal.metadata.DocumentSolrMetadataExtractor.setExtras(DocumentSolrMetadataExtractor.java:187)
	at org.xwiki.search.solr.internal.metadata.DocumentSolrMetadataExtractor.setFieldsInternal(DocumentSolrMetadataExtractor.java:135)
	at org.xwiki.search.solr.internal.metadata.AbstractSolrMetadataExtractor.getSolrDocument(AbstractSolrMetadataExtractor.java:133)
	at org.xwiki.search.solr.internal.DefaultSolrIndexer.getSolrDocument(DefaultSolrIndexer.java:504)
	at org.xwiki.search.solr.internal.DefaultSolrIndexer.processBatch(DefaultSolrIndexer.java:411)
	at org.xwiki.search.solr.internal.DefaultSolrIndexer.run(DefaultSolrIndexer.java:377)
	at java.lang.Thread.run(Thread.java:748)
2019-07-19 09:46:11,063 [XWiki Solr index thread] ERROR .DocumentSolrMetadataExtractor - Failed to retrieve the content of attachment [Attachment xwiki:Main.WebHome@image-20190712103455-1.jpeg] 
com.xpn.xwiki.XWikiException: Error number 3002 in 3: The attachment could not be found in the filesystem attachment store (/home/matheus/ahh/xwiki/data/storage/xwiki/%4Dain/%57eb%48ome/~this/attachments/image-20190712103455-1.jpeg/image-20190712103455-1.jpeg).

	at org.xwiki.store.legacy.store.internal.FilesystemAttachmentStore.loadAttachmentContent(FilesystemAttachmentStore.java:213)
	at com.xpn.xwiki.doc.XWikiAttachment.loadAttachmentContent(XWikiAttachment.java:1060)
	at com.xpn.xwiki.doc.XWikiAttachment.reloadAttachmentContent(XWikiAttachment.java:883)
	at com.xpn.xwiki.doc.XWikiAttachment.getContentInputStream(XWikiAttachment.java:861)
	at org.xwiki.search.solr.internal.metadata.AbstractSolrMetadataExtractor.getContentAsText(AbstractSolrMetadataExtractor.java:506)
	at org.xwiki.search.solr.internal.metadata.DocumentSolrMetadataExtractor.setAttachment(DocumentSolrMetadataExtractor.java:281)
	at org.xwiki.search.solr.internal.metadata.DocumentSolrMetadataExtractor.setAttachments(DocumentSolrMetadataExtractor.java:261)
	at org.xwiki.search.solr.internal.metadata.DocumentSolrMetadataExtractor.setExtras(DocumentSolrMetadataExtractor.java:187)
	at org.xwiki.search.solr.internal.metadata.DocumentSolrMetadataExtractor.setFieldsInternal(DocumentSolrMetadataExtractor.java:135)
	at org.xwiki.search.solr.internal.metadata.AbstractSolrMetadataExtractor.getSolrDocument(AbstractSolrMetadataExtractor.java:133)
	at org.xwiki.search.solr.internal.DefaultSolrIndexer.getSolrDocument(DefaultSolrIndexer.java:504)
	at org.xwiki.search.solr.internal.DefaultSolrIndexer.processBatch(DefaultSolrIndexer.java:411)
	at org.xwiki.search.solr.internal.DefaultSolrIndexer.run(DefaultSolrIndexer.java:377)
	at java.lang.Thread.run(Thread.java:748)
2019-07-19 09:46:11,064 [XWiki Solr index thread] ERROR .DocumentSolrMetadataExtractor - Failed to retrieve the content of attachment [Attachment xwiki:Main.WebHome@oioi.jpg] 
com.xpn.xwiki.XWikiException: Error number 3002 in 3: The attachment could not be found in the filesystem attachment store (/home/matheus/ahh/xwiki/data/storage/xwiki/%4Dain/%57eb%48ome/~this/attachments/oioi.jpg/oioi.jpg).

	at org.xwiki.store.legacy.store.internal.FilesystemAttachmentStore.loadAttachmentContent(FilesystemAttachmentStore.java:213)
	at com.xpn.xwiki.doc.XWikiAttachment.loadAttachmentContent(XWikiAttachment.java:1060)
	at com.xpn.xwiki.doc.XWikiAttachment.reloadAttachmentContent(XWikiAttachment.java:883)
	at com.xpn.xwiki.doc.XWikiAttachment.getContentInputStream(XWikiAttachment.java:861)
	at org.xwiki.search.solr.internal.metadata.AbstractSolrMetadataExtractor.getContentAsText(AbstractSolrMetadataExtractor.java:506)
	at org.xwiki.search.solr.internal.metadata.DocumentSolrMetadataExtractor.setAttachment(DocumentSolrMetadataExtractor.java:281)
	at org.xwiki.search.solr.internal.metadata.DocumentSolrMetadataExtractor.setAttachments(DocumentSolrMetadataExtractor.java:261)
	at org.xwiki.search.solr.internal.metadata.DocumentSolrMetadataExtractor.setExtras(DocumentSolrMetadataExtractor.java:187)
	at org.xwiki.search.solr.internal.metadata.DocumentSolrMetadataExtractor.setFieldsInternal(DocumentSolrMetadataExtractor.java:135)
	at org.xwiki.search.solr.internal.metadata.AbstractSolrMetadataExtractor.getSolrDocument(AbstractSolrMetadataExtractor.java:133)
	at org.xwiki.search.solr.internal.DefaultSolrIndexer.getSolrDocument(DefaultSolrIndexer.java:504)
	at org.xwiki.search.solr.internal.DefaultSolrIndexer.processBatch(DefaultSolrIndexer.java:411)
	at org.xwiki.search.solr.internal.DefaultSolrIndexer.run(DefaultSolrIndexer.java:377)
	at java.lang.Thread.run(Thread.java:748)
2019-07-19 09:46:11,568 [XWiki Solr index thread] ERROR .DocumentSolrMetadataExtractor - Failed to retrieve the content of attachment [Attachment xwiki:Main.WebHome@image-20190712103338-1.jpeg] 
com.xpn.xwiki.XWikiException: Error number 3002 in 3: The attachment could not be found in the filesystem attachment store (/home/matheus/ahh/xwiki/data/storage/xwiki/%4Dain/%57eb%48ome/~this/attachments/image-20190712103338-1.jpeg/image-20190712103338-1.jpeg).

	at org.xwiki.store.legacy.store.internal.FilesystemAttachmentStore.loadAttachmentContent(FilesystemAttachmentStore.java:213)
	at com.xpn.xwiki.doc.XWikiAttachment.loadAttachmentContent(XWikiAttachment.java:1060)
	at com.xpn.xwiki.doc.XWikiAttachment.reloadAttachmentContent(XWikiAttachment.java:883)
	at com.xpn.xwiki.doc.XWikiAttachment.getContentInputStream(XWikiAttachment.java:861)
	at org.xwiki.search.solr.internal.metadata.AbstractSolrMetadataExtractor.getContentAsText(AbstractSolrMetadataExtractor.java:506)
	at org.xwiki.search.solr.internal.metadata.DocumentSolrMetadataExtractor.setAttachment(DocumentSolrMetadataExtractor.java:281)
	at org.xwiki.search.solr.internal.metadata.DocumentSolrMetadataExtractor.setAttachments(DocumentSolrMetadataExtractor.java:261)
	at org.xwiki.search.solr.internal.metadata.DocumentSolrMetadataExtractor.setExtras(DocumentSolrMetadataExtractor.java:187)
	at org.xwiki.search.solr.internal.metadata.DocumentSolrMetadataExtractor.setFieldsInternal(DocumentSolrMetadataExtractor.java:135)
	at org.xwiki.search.solr.internal.metadata.AbstractSolrMetadataExtractor.getSolrDocument(AbstractSolrMetadataExtractor.java:133)
	at org.xwiki.search.solr.internal.DefaultSolrIndexer.getSolrDocument(DefaultSolrIndexer.java:504)
	at org.xwiki.search.solr.internal.DefaultSolrIndexer.processBatch(DefaultSolrIndexer.java:411)
	at org.xwiki.search.solr.internal.DefaultSolrIndexer.run(DefaultSolrIndexer.java:377)
	at java.lang.Thread.run(Thread.java:748)
2019-07-19 09:46:11,571 [XWiki Solr index thread] ERROR .DocumentSolrMetadataExtractor - Failed to retrieve the content of attachment [Attachment xwiki:Main.WebHome@image-20190712103409-2.jpeg] 
com.xpn.xwiki.XWikiException: Error number 3002 in 3: The attachment could not be found in the filesystem attachment store (/home/matheus/ahh/xwiki/data/storage/xwiki/%4Dain/%57eb%48ome/~this/attachments/image-20190712103409-2.jpeg/image-20190712103409-2.jpeg).

	at org.xwiki.store.legacy.store.internal.FilesystemAttachmentStore.loadAttachmentContent(FilesystemAttachmentStore.java:213)
	at com.xpn.xwiki.doc.XWikiAttachment.loadAttachmentContent(XWikiAttachment.java:1060)
	at com.xpn.xwiki.doc.XWikiAttachment.reloadAttachmentContent(XWikiAttachment.java:883)
	at com.xpn.xwiki.doc.XWikiAttachment.getContentInputStream(XWikiAttachment.java:861)
	at org.xwiki.search.solr.internal.metadata.AbstractSolrMetadataExtractor.getContentAsText(AbstractSolrMetadataExtractor.java:506)
	at org.xwiki.search.solr.internal.metadata.DocumentSolrMetadataExtractor.setAttachment(DocumentSolrMetadataExtractor.java:281)
	at org.xwiki.search.solr.internal.metadata.DocumentSolrMetadataExtractor.setAttachments(DocumentSolrMetadataExtractor.java:261)
	at org.xwiki.search.solr.internal.metadata.DocumentSolrMetadataExtractor.setExtras(DocumentSolrMetadataExtractor.java:187)
	at org.xwiki.search.solr.internal.metadata.DocumentSolrMetadataExtractor.setFieldsInternal(DocumentSolrMetadataExtractor.java:135)
	at org.xwiki.search.solr.internal.metadata.AbstractSolrMetadataExtractor.getSolrDocument(AbstractSolrMetadataExtractor.java:133)
	at org.xwiki.search.solr.internal.DefaultSolrIndexer.getSolrDocument(DefaultSolrIndexer.java:504)
	at org.xwiki.search.solr.internal.DefaultSolrIndexer.processBatch(DefaultSolrIndexer.java:411)
	at org.xwiki.search.solr.internal.DefaultSolrIndexer.run(DefaultSolrIndexer.java:377)
	at java.lang.Thread.run(Thread.java:748)
2019-07-19 09:46:11,571 [XWiki Solr index thread] ERROR .DocumentSolrMetadataExtractor - Failed to retrieve the content of attachment [Attachment xwiki:Main.WebHome@image-20190712103455-1.jpeg] 
com.xpn.xwiki.XWikiException: Error number 3002 in 3: The attachment could not be found in the filesystem attachment store (/home/matheus/ahh/xwiki/data/storage/xwiki/%4Dain/%57eb%48ome/~this/attachments/image-20190712103455-1.jpeg/image-20190712103455-1.jpeg).

	at org.xwiki.store.legacy.store.internal.FilesystemAttachmentStore.loadAttachmentContent(FilesystemAttachmentStore.java:213)
	at com.xpn.xwiki.doc.XWikiAttachment.loadAttachmentContent(XWikiAttachment.java:1060)
	at com.xpn.xwiki.doc.XWikiAttachment.reloadAttachmentContent(XWikiAttachment.java:883)
	at com.xpn.xwiki.doc.XWikiAttachment.getContentInputStream(XWikiAttachment.java:861)
	at org.xwiki.search.solr.internal.metadata.AbstractSolrMetadataExtractor.getContentAsText(AbstractSolrMetadataExtractor.java:506)
	at org.xwiki.search.solr.internal.metadata.DocumentSolrMetadataExtractor.setAttachment(DocumentSolrMetadataExtractor.java:281)
	at org.xwiki.search.solr.internal.metadata.DocumentSolrMetadataExtractor.setAttachments(DocumentSolrMetadataExtractor.java:261)
	at org.xwiki.search.solr.internal.metadata.DocumentSolrMetadataExtractor.setExtras(DocumentSolrMetadataExtractor.java:187)
	at org.xwiki.search.solr.internal.metadata.DocumentSolrMetadataExtractor.setFieldsInternal(DocumentSolrMetadataExtractor.java:135)
	at org.xwiki.search.solr.internal.metadata.AbstractSolrMetadataExtractor.getSolrDocument(AbstractSolrMetadataExtractor.java:133)
	at org.xwiki.search.solr.internal.DefaultSolrIndexer.getSolrDocument(DefaultSolrIndexer.java:504)
	at org.xwiki.search.solr.internal.DefaultSolrIndexer.processBatch(DefaultSolrIndexer.java:411)
	at org.xwiki.search.solr.internal.DefaultSolrIndexer.run(DefaultSolrIndexer.java:377)
	at java.lang.Thread.run(Thread.java:748)
2019-07-19 09:46:11,573 [XWiki Solr index thread] ERROR .DocumentSolrMetadataExtractor - Failed to retrieve the content of attachment [Attachment xwiki:Main.WebHome@oioi.jpg] 
com.xpn.xwiki.XWikiException: Error number 3002 in 3: The attachment could not be found in the filesystem attachment store (/home/matheus/ahh/xwiki/data/storage/xwiki/%4Dain/%57eb%48ome/~this/attachments/oioi.jpg/oioi.jpg).

	at org.xwiki.store.legacy.store.internal.FilesystemAttachmentStore.loadAttachmentContent(FilesystemAttachmentStore.java:213)
	at com.xpn.xwiki.doc.XWikiAttachment.loadAttachmentContent(XWikiAttachment.java:1060)
	at com.xpn.xwiki.doc.XWikiAttachment.reloadAttachmentContent(XWikiAttachment.java:883)
	at com.xpn.xwiki.doc.XWikiAttachment.getContentInputStream(XWikiAttachment.java:861)
	at org.xwiki.search.solr.internal.metadata.AbstractSolrMetadataExtractor.getContentAsText(AbstractSolrMetadataExtractor.java:506)
	at org.xwiki.search.solr.internal.metadata.DocumentSolrMetadataExtractor.setAttachment(DocumentSolrMetadataExtractor.java:281)
	at org.xwiki.search.solr.internal.metadata.DocumentSolrMetadataExtractor.setAttachments(DocumentSolrMetadataExtractor.java:261)
	at org.xwiki.search.solr.internal.metadata.DocumentSolrMetadataExtractor.setExtras(DocumentSolrMetadataExtractor.java:187)
	at org.xwiki.search.solr.internal.metadata.DocumentSolrMetadataExtractor.setFieldsInternal(DocumentSolrMetadataExtractor.java:135)
	at org.xwiki.search.solr.internal.metadata.AbstractSolrMetadataExtractor.getSolrDocument(AbstractSolrMetadataExtractor.java:133)
	at org.xwiki.search.solr.internal.DefaultSolrIndexer.getSolrDocument(DefaultSolrIndexer.java:504)
	at org.xwiki.search.solr.internal.DefaultSolrIndexer.processBatch(DefaultSolrIndexer.java:411)
	at org.xwiki.search.solr.internal.DefaultSolrIndexer.run(DefaultSolrIndexer.java:377)
	at java.lang.Thread.run(Thread.java:748)
2019-07-19 09:46:12,270 [Active Installs Ping Thread] WARN  a.i.c.ActiveInstallsPingThread - Failed to send Active Installation ping to [http://extensions.xwiki.org/activeinstalls]. Error = [ConnectException: A rede está fora de alcance (connect failed)]. Will retry in [86400] seconds... 
2019-07-19 09:46:12,350 [XWiki Solr index thread] ERROR .DocumentSolrMetadataExtractor - Failed to retrieve the content of attachment [Attachment xwiki:Main.WebHome@image-20190712103338-1.jpeg] 
com.xpn.xwiki.XWikiException: Error number 3002 in 3: The attachment could not be found in the filesystem attachment store (/home/matheus/ahh/xwiki/data/storage/xwiki/%4Dain/%57eb%48ome/~this/attachments/image-20190712103338-1.jpeg/image-20190712103338-1.jpeg).

	at org.xwiki.store.legacy.store.internal.FilesystemAttachmentStore.loadAttachmentContent(FilesystemAttachmentStore.java:213)
	at com.xpn.xwiki.doc.XWikiAttachment.loadAttachmentContent(XWikiAttachment.java:1060)
	at com.xpn.xwiki.doc.XWikiAttachment.reloadAttachmentContent(XWikiAttachment.java:883)
	at com.xpn.xwiki.doc.XWikiAttachment.getContentInputStream(XWikiAttachment.java:861)
	at org.xwiki.search.solr.internal.metadata.AbstractSolrMetadataExtractor.getContentAsText(AbstractSolrMetadataExtractor.java:506)
	at org.xwiki.search.solr.internal.metadata.DocumentSolrMetadataExtractor.setAttachment(DocumentSolrMetadataExtractor.java:281)
	at org.xwiki.search.solr.internal.metadata.DocumentSolrMetadataExtractor.setAttachments(DocumentSolrMetadataExtractor.java:261)
	at org.xwiki.search.solr.internal.metadata.DocumentSolrMetadataExtractor.setExtras(DocumentSolrMetadataExtractor.java:187)
	at org.xwiki.search.solr.internal.metadata.DocumentSolrMetadataExtractor.setFieldsInternal(DocumentSolrMetadataExtractor.java:135)
	at org.xwiki.search.solr.internal.metadata.AbstractSolrMetadataExtractor.getSolrDocument(AbstractSolrMetadataExtractor.java:133)
	at org.xwiki.search.solr.internal.DefaultSolrIndexer.getSolrDocument(DefaultSolrIndexer.java:504)
	at org.xwiki.search.solr.internal.DefaultSolrIndexer.processBatch(DefaultSolrIndexer.java:411)
	at org.xwiki.search.solr.internal.DefaultSolrIndexer.run(DefaultSolrIndexer.java:377)
	at java.lang.Thread.run(Thread.java:748)
2019-07-19 09:46:12,354 [XWiki Solr index thread] ERROR .DocumentSolrMetadataExtractor - Failed to retrieve the content of attachment [Attachment xwiki:Main.WebHome@image-20190712103409-2.jpeg] 
com.xpn.xwiki.XWikiException: Error number 3002 in 3: The attachment could not be found in the filesystem attachment store (/home/matheus/ahh/xwiki/data/storage/xwiki/%4Dain/%57eb%48ome/~this/attachments/image-20190712103409-2.jpeg/image-20190712103409-2.jpeg).

	at org.xwiki.store.legacy.store.internal.FilesystemAttachmentStore.loadAttachmentContent(FilesystemAttachmentStore.java:213)
	at com.xpn.xwiki.doc.XWikiAttachment.loadAttachmentContent(XWikiAttachment.java:1060)
	at com.xpn.xwiki.doc.XWikiAttachment.reloadAttachmentContent(XWikiAttachment.java:883)
	at com.xpn.xwiki.doc.XWikiAttachment.getContentInputStream(XWikiAttachment.java:861)
	at org.xwiki.search.solr.internal.metadata.AbstractSolrMetadataExtractor.getContentAsText(AbstractSolrMetadataExtractor.java:506)
	at org.xwiki.search.solr.internal.metadata.DocumentSolrMetadataExtractor.setAttachment(DocumentSolrMetadataExtractor.java:281)
	at org.xwiki.search.solr.internal.metadata.DocumentSolrMetadataExtractor.setAttachments(DocumentSolrMetadataExtractor.java:261)
	at org.xwiki.search.solr.internal.metadata.DocumentSolrMetadataExtractor.setExtras(DocumentSolrMetadataExtractor.java:187)
	at org.xwiki.search.solr.internal.metadata.DocumentSolrMetadataExtractor.setFieldsInternal(DocumentSolrMetadataExtractor.java:135)
	at org.xwiki.search.solr.internal.metadata.AbstractSolrMetadataExtractor.getSolrDocument(AbstractSolrMetadataExtractor.java:133)
	at org.xwiki.search.solr.internal.DefaultSolrIndexer.getSolrDocument(DefaultSolrIndexer.java:504)
	at org.xwiki.search.solr.internal.DefaultSolrIndexer.processBatch(DefaultSolrIndexer.java:411)
	at org.xwiki.search.solr.internal.DefaultSolrIndexer.run(DefaultSolrIndexer.java:377)
	at java.lang.Thread.run(Thread.java:748)
2019-07-19 09:46:12,355 [XWiki Solr index thread] ERROR .DocumentSolrMetadataExtractor - Failed to retrieve the content of attachment [Attachment xwiki:Main.WebHome@image-20190712103455-1.jpeg] 
com.xpn.xwiki.XWikiException: Error number 3002 in 3: The attachment could not be found in the filesystem attachment store (/home/matheus/ahh/xwiki/data/storage/xwiki/%4Dain/%57eb%48ome/~this/attachments/image-20190712103455-1.jpeg/image-20190712103455-1.jpeg).

	at org.xwiki.store.legacy.store.internal.FilesystemAttachmentStore.loadAttachmentContent(FilesystemAttachmentStore.java:213)
	at com.xpn.xwiki.doc.XWikiAttachment.loadAttachmentContent(XWikiAttachment.java:1060)
	at com.xpn.xwiki.doc.XWikiAttachment.reloadAttachmentContent(XWikiAttachment.java:883)
	at com.xpn.xwiki.doc.XWikiAttachment.getContentInputStream(XWikiAttachment.java:861)
	at org.xwiki.search.solr.internal.metadata.AbstractSolrMetadataExtractor.getContentAsText(AbstractSolrMetadataExtractor.java:506)
	at org.xwiki.search.solr.internal.metadata.DocumentSolrMetadataExtractor.setAttachment(DocumentSolrMetadataExtractor.java:281)
	at org.xwiki.search.solr.internal.metadata.DocumentSolrMetadataExtractor.setAttachments(DocumentSolrMetadataExtractor.java:261)
	at org.xwiki.search.solr.internal.metadata.DocumentSolrMetadataExtractor.setExtras(DocumentSolrMetadataExtractor.java:187)
	at org.xwiki.search.solr.internal.metadata.DocumentSolrMetadataExtractor.setFieldsInternal(DocumentSolrMetadataExtractor.java:135)
	at org.xwiki.search.solr.internal.metadata.AbstractSolrMetadataExtractor.getSolrDocument(AbstractSolrMetadataExtractor.java:133)
	at org.xwiki.search.solr.internal.DefaultSolrIndexer.getSolrDocument(DefaultSolrIndexer.java:504)
	at org.xwiki.search.solr.internal.DefaultSolrIndexer.processBatch(DefaultSolrIndexer.java:411)
	at org.xwiki.search.solr.internal.DefaultSolrIndexer.run(DefaultSolrIndexer.java:377)
	at java.lang.Thread.run(Thread.java:748)
2019-07-19 09:46:12,357 [XWiki Solr index thread] ERROR .DocumentSolrMetadataExtractor - Failed to retrieve the content of attachment [Attachment xwiki:Main.WebHome@oioi.jpg] 
com.xpn.xwiki.XWikiException: Error number 3002 in 3: The attachment could not be found in the filesystem attachment store (/home/matheus/ahh/xwiki/data/storage/xwiki/%4Dain/%57eb%48ome/~this/attachments/oioi.jpg/oioi.jpg).

	at org.xwiki.store.legacy.store.internal.FilesystemAttachmentStore.loadAttachmentContent(FilesystemAttachmentStore.java:213)
	at com.xpn.xwiki.doc.XWikiAttachment.loadAttachmentContent(XWikiAttachment.java:1060)
	at com.xpn.xwiki.doc.XWikiAttachment.reloadAttachmentContent(XWikiAttachment.java:883)
	at com.xpn.xwiki.doc.XWikiAttachment.getContentInputStream(XWikiAttachment.java:861)
	at org.xwiki.search.solr.internal.metadata.AbstractSolrMetadataExtractor.getContentAsText(AbstractSolrMetadataExtractor.java:506)
	at org.xwiki.search.solr.internal.metadata.DocumentSolrMetadataExtractor.setAttachment(DocumentSolrMetadataExtractor.java:281)
	at org.xwiki.search.solr.internal.metadata.DocumentSolrMetadataExtractor.setAttachments(DocumentSolrMetadataExtractor.java:261)
	at org.xwiki.search.solr.internal.metadata.DocumentSolrMetadataExtractor.setExtras(DocumentSolrMetadataExtractor.java:187)
	at org.xwiki.search.solr.internal.metadata.DocumentSolrMetadataExtractor.setFieldsInternal(DocumentSolrMetadataExtractor.java:135)
	at org.xwiki.search.solr.internal.metadata.AbstractSolrMetadataExtractor.getSolrDocument(AbstractSolrMetadataExtractor.java:133)
	at org.xwiki.search.solr.internal.DefaultSolrIndexer.getSolrDocument(DefaultSolrIndexer.java:504)
	at org.xwiki.search.solr.internal.DefaultSolrIndexer.processBatch(DefaultSolrIndexer.java:411)
	at org.xwiki.search.solr.internal.DefaultSolrIndexer.run(DefaultSolrIndexer.java:377)
	at java.lang.Thread.run(Thread.java:748)
2019-07-19 09:46:12,545 [XWiki Solr index thread] ERROR .DocumentSolrMetadataExtractor - Failed to retrieve the content of attachment [Attachment xwiki:Main.WebHome@image-20190712103338-1.jpeg] 
com.xpn.xwiki.XWikiException: Error number 3002 in 3: The attachment could not be found in the filesystem attachment store (/home/matheus/ahh/xwiki/data/storage/xwiki/%4Dain/%57eb%48ome/~this/attachments/image-20190712103338-1.jpeg/image-20190712103338-1.jpeg).

	at org.xwiki.store.legacy.store.internal.FilesystemAttachmentStore.loadAttachmentContent(FilesystemAttachmentStore.java:213)
	at com.xpn.xwiki.doc.XWikiAttachment.loadAttachmentContent(XWikiAttachment.java:1060)
	at com.xpn.xwiki.doc.XWikiAttachment.reloadAttachmentContent(XWikiAttachment.java:883)
	at com.xpn.xwiki.doc.XWikiAttachment.getContentInputStream(XWikiAttachment.java:861)
	at org.xwiki.search.solr.internal.metadata.AbstractSolrMetadataExtractor.getContentAsText(AbstractSolrMetadataExtractor.java:506)
	at org.xwiki.search.solr.internal.metadata.DocumentSolrMetadataExtractor.setAttachment(DocumentSolrMetadataExtractor.java:281)
	at org.xwiki.search.solr.internal.metadata.DocumentSolrMetadataExtractor.setAttachments(DocumentSolrMetadataExtractor.java:261)
	at org.xwiki.search.solr.internal.metadata.DocumentSolrMetadataExtractor.setExtras(DocumentSolrMetadataExtractor.java:187)
	at org.xwiki.search.solr.internal.metadata.DocumentSolrMetadataExtractor.setFieldsInternal(DocumentSolrMetadataExtractor.java:135)
	at org.xwiki.search.solr.internal.metadata.AbstractSolrMetadataExtractor.getSolrDocument(AbstractSolrMetadataExtractor.java:133)
	at org.xwiki.search.solr.internal.DefaultSolrIndexer.getSolrDocument(DefaultSolrIndexer.java:504)
	at org.xwiki.search.solr.internal.DefaultSolrIndexer.processBatch(DefaultSolrIndexer.java:411)
	at org.xwiki.search.solr.internal.DefaultSolrIndexer.run(DefaultSolrIndexer.java:377)
	at java.lang.Thread.run(Thread.java:748)
2019-07-19 09:46:12,549 [XWiki Solr index thread] ERROR .DocumentSolrMetadataExtractor - Failed to retrieve the content of attachment [Attachment xwiki:Main.WebHome@image-20190712103409-2.jpeg] 
com.xpn.xwiki.XWikiException: Error number 3002 in 3: The attachment could not be found in the filesystem attachment store (/home/matheus/ahh/xwiki/data/storage/xwiki/%4Dain/%57eb%48ome/~this/attachments/image-20190712103409-2.jpeg/image-20190712103409-2.jpeg).

	at org.xwiki.store.legacy.store.internal.FilesystemAttachmentStore.loadAttachmentContent(FilesystemAttachmentStore.java:213)
	at com.xpn.xwiki.doc.XWikiAttachment.loadAttachmentContent(XWikiAttachment.java:1060)
	at com.xpn.xwiki.doc.XWikiAttachment.reloadAttachmentContent(XWikiAttachment.java:883)
	at com.xpn.xwiki.doc.XWikiAttachment.getContentInputStream(XWikiAttachment.java:861)
	at org.xwiki.search.solr.internal.metadata.AbstractSolrMetadataExtractor.getContentAsText(AbstractSolrMetadataExtractor.java:506)
	at org.xwiki.search.solr.internal.metadata.DocumentSolrMetadataExtractor.setAttachment(DocumentSolrMetadataExtractor.java:281)
	at org.xwiki.search.solr.internal.metadata.DocumentSolrMetadataExtractor.setAttachments(DocumentSolrMetadataExtractor.java:261)
	at org.xwiki.search.solr.internal.metadata.DocumentSolrMetadataExtractor.setExtras(DocumentSolrMetadataExtractor.java:187)
	at org.xwiki.search.solr.internal.metadata.DocumentSolrMetadataExtractor.setFieldsInternal(DocumentSolrMetadataExtractor.java:135)
	at org.xwiki.search.solr.internal.metadata.AbstractSolrMetadataExtractor.getSolrDocument(AbstractSolrMetadataExtractor.java:133)
	at org.xwiki.search.solr.internal.DefaultSolrIndexer.getSolrDocument(DefaultSolrIndexer.java:504)
	at org.xwiki.search.solr.internal.DefaultSolrIndexer.processBatch(DefaultSolrIndexer.java:411)
	at org.xwiki.search.solr.internal.DefaultSolrIndexer.run(DefaultSolrIndexer.java:377)
	at java.lang.Thread.run(Thread.java:748)
2019-07-19 09:46:12,553 [XWiki Solr index thread] ERROR .DocumentSolrMetadataExtractor - Failed to retrieve the content of attachment [Attachment xwiki:Main.WebHome@image-20190712103455-1.jpeg] 
com.xpn.xwiki.XWikiException: Error number 3002 in 3: The attachment could not be found in the filesystem attachment store (/home/matheus/ahh/xwiki/data/storage/xwiki/%4Dain/%57eb%48ome/~this/attachments/image-20190712103455-1.jpeg/image-20190712103455-1.jpeg).

	at org.xwiki.store.legacy.store.internal.FilesystemAttachmentStore.loadAttachmentContent(FilesystemAttachmentStore.java:213)
	at com.xpn.xwiki.doc.XWikiAttachment.loadAttachmentContent(XWikiAttachment.java:1060)
	at com.xpn.xwiki.doc.XWikiAttachment.reloadAttachmentContent(XWikiAttachment.java:883)
	at com.xpn.xwiki.doc.XWikiAttachment.getContentInputStream(XWikiAttachment.java:861)
	at org.xwiki.search.solr.internal.metadata.AbstractSolrMetadataExtractor.getContentAsText(AbstractSolrMetadataExtractor.java:506)
	at org.xwiki.search.solr.internal.metadata.DocumentSolrMetadataExtractor.setAttachment(DocumentSolrMetadataExtractor.java:281)
	at org.xwiki.search.solr.internal.metadata.DocumentSolrMetadataExtractor.setAttachments(DocumentSolrMetadataExtractor.java:261)
	at org.xwiki.search.solr.internal.metadata.DocumentSolrMetadataExtractor.setExtras(DocumentSolrMetadataExtractor.java:187)
	at org.xwiki.search.solr.internal.metadata.DocumentSolrMetadataExtractor.setFieldsInternal(DocumentSolrMetadataExtractor.java:135)
	at org.xwiki.search.solr.internal.metadata.AbstractSolrMetadataExtractor.getSolrDocument(AbstractSolrMetadataExtractor.java:133)
	at org.xwiki.search.solr.internal.DefaultSolrIndexer.getSolrDocument(DefaultSolrIndexer.java:504)
	at org.xwiki.search.solr.internal.DefaultSolrIndexer.processBatch(DefaultSolrIndexer.java:411)
	at org.xwiki.search.solr.internal.DefaultSolrIndexer.run(DefaultSolrIndexer.java:377)
	at java.lang.Thread.run(Thread.java:748)
2019-07-19 09:46:12,559 [XWiki Solr index thread] ERROR .DocumentSolrMetadataExtractor - Failed to retrieve the content of attachment [Attachment xwiki:Main.WebHome@oioi.jpg] 
com.xpn.xwiki.XWikiException: Error number 3002 in 3: The attachment could not be found in the filesystem attachment store (/home/matheus/ahh/xwiki/data/storage/xwiki/%4Dain/%57eb%48ome/~this/attachments/oioi.jpg/oioi.jpg).

	at org.xwiki.store.legacy.store.internal.FilesystemAttachmentStore.loadAttachmentContent(FilesystemAttachmentStore.java:213)
	at com.xpn.xwiki.doc.XWikiAttachment.loadAttachmentContent(XWikiAttachment.java:1060)
	at com.xpn.xwiki.doc.XWikiAttachment.reloadAttachmentContent(XWikiAttachment.java:883)
	at com.xpn.xwiki.doc.XWikiAttachment.getContentInputStream(XWikiAttachment.java:861)
	at org.xwiki.search.solr.internal.metadata.AbstractSolrMetadataExtractor.getContentAsText(AbstractSolrMetadataExtractor.java:506)
	at org.xwiki.search.solr.internal.metadata.DocumentSolrMetadataExtractor.setAttachment(DocumentSolrMetadataExtractor.java:281)
	at org.xwiki.search.solr.internal.metadata.DocumentSolrMetadataExtractor.setAttachments(DocumentSolrMetadataExtractor.java:261)
	at org.xwiki.search.solr.internal.metadata.DocumentSolrMetadataExtractor.setExtras(DocumentSolrMetadataExtractor.java:187)
	at org.xwiki.search.solr.internal.metadata.DocumentSolrMetadataExtractor.setFieldsInternal(DocumentSolrMetadataExtractor.java:135)
	at org.xwiki.search.solr.internal.metadata.AbstractSolrMetadataExtractor.getSolrDocument(AbstractSolrMetadataExtractor.java:133)
	at org.xwiki.search.solr.internal.DefaultSolrIndexer.getSolrDocument(DefaultSolrIndexer.java:504)
	at org.xwiki.search.solr.internal.DefaultSolrIndexer.processBatch(DefaultSolrIndexer.java:411)
	at org.xwiki.search.solr.internal.DefaultSolrIndexer.run(DefaultSolrIndexer.java:377)
	at java.lang.Thread.run(Thread.java:748)
2019-07-19 09:46:13,098 [XWiki Solr index thread] ERROR ttachmentSolrMetadataExtractor - Failed to retrieve the content of attachment [Attachment xwiki:Main.WebHome@image-20190712103338-1.jpeg] 
com.xpn.xwiki.XWikiException: Error number 3002 in 3: The attachment could not be found in the filesystem attachment store (/home/matheus/ahh/xwiki/data/storage/xwiki/%4Dain/%57eb%48ome/~this/attachments/image-20190712103338-1.jpeg/image-20190712103338-1.jpeg).

	at org.xwiki.store.legacy.store.internal.FilesystemAttachmentStore.loadAttachmentContent(FilesystemAttachmentStore.java:213)
	at com.xpn.xwiki.doc.XWikiAttachment.loadAttachmentContent(XWikiAttachment.java:1060)
	at com.xpn.xwiki.doc.XWikiAttachment.reloadAttachmentContent(XWikiAttachment.java:883)
	at com.xpn.xwiki.doc.XWikiAttachment.getContentInputStream(XWikiAttachment.java:861)
	at org.xwiki.search.solr.internal.metadata.AbstractSolrMetadataExtractor.getContentAsText(AbstractSolrMetadataExtractor.java:506)
	at org.xwiki.search.solr.internal.metadata.AttachmentSolrMetadataExtractor.setLocaleAndContentFields(AttachmentSolrMetadataExtractor.java:111)
	at org.xwiki.search.solr.internal.metadata.AttachmentSolrMetadataExtractor.setFieldsInternal(AttachmentSolrMetadataExtractor.java:93)
	at org.xwiki.search.solr.internal.metadata.AbstractSolrMetadataExtractor.getSolrDocument(AbstractSolrMetadataExtractor.java:133)
	at org.xwiki.search.solr.internal.DefaultSolrIndexer.getSolrDocument(DefaultSolrIndexer.java:504)
	at org.xwiki.search.solr.internal.DefaultSolrIndexer.processBatch(DefaultSolrIndexer.java:411)
	at org.xwiki.search.solr.internal.DefaultSolrIndexer.run(DefaultSolrIndexer.java:377)
	at java.lang.Thread.run(Thread.java:748)
2019-07-19 09:46:13,126 [XWiki Solr index thread] ERROR ttachmentSolrMetadataExtractor - Failed to retrieve the content of attachment [Attachment xwiki:Main.WebHome@image-20190712103409-2.jpeg] 
com.xpn.xwiki.XWikiException: Error number 3002 in 3: The attachment could not be found in the filesystem attachment store (/home/matheus/ahh/xwiki/data/storage/xwiki/%4Dain/%57eb%48ome/~this/attachments/image-20190712103409-2.jpeg/image-20190712103409-2.jpeg).

	at org.xwiki.store.legacy.store.internal.FilesystemAttachmentStore.loadAttachmentContent(FilesystemAttachmentStore.java:213)
	at com.xpn.xwiki.doc.XWikiAttachment.loadAttachmentContent(XWikiAttachment.java:1060)
	at com.xpn.xwiki.doc.XWikiAttachment.reloadAttachmentContent(XWikiAttachment.java:883)
	at com.xpn.xwiki.doc.XWikiAttachment.getContentInputStream(XWikiAttachment.java:861)
	at org.xwiki.search.solr.internal.metadata.AbstractSolrMetadataExtractor.getContentAsText(AbstractSolrMetadataExtractor.java:506)
	at org.xwiki.search.solr.internal.metadata.AttachmentSolrMetadataExtractor.setLocaleAndContentFields(AttachmentSolrMetadataExtractor.java:111)
	at org.xwiki.search.solr.internal.metadata.AttachmentSolrMetadataExtractor.setFieldsInternal(AttachmentSolrMetadataExtractor.java:93)
	at org.xwiki.search.solr.internal.metadata.AbstractSolrMetadataExtractor.getSolrDocument(AbstractSolrMetadataExtractor.java:133)
	at org.xwiki.search.solr.internal.DefaultSolrIndexer.getSolrDocument(DefaultSolrIndexer.java:504)
	at org.xwiki.search.solr.internal.DefaultSolrIndexer.processBatch(DefaultSolrIndexer.java:411)
	at org.xwiki.search.solr.internal.DefaultSolrIndexer.run(DefaultSolrIndexer.java:377)
	at java.lang.Thread.run(Thread.java:748)
2019-07-19 09:46:13,132 [XWiki Solr index thread] ERROR ttachmentSolrMetadataExtractor - Failed to retrieve the content of attachment [Attachment xwiki:Main.WebHome@image-20190712103455-1.jpeg] 
com.xpn.xwiki.XWikiException: Error number 3002 in 3: The attachment could not be found in the filesystem attachment store (/home/matheus/ahh/xwiki/data/storage/xwiki/%4Dain/%57eb%48ome/~this/attachments/image-20190712103455-1.jpeg/image-20190712103455-1.jpeg).

	at org.xwiki.store.legacy.store.internal.FilesystemAttachmentStore.loadAttachmentContent(FilesystemAttachmentStore.java:213)
	at com.xpn.xwiki.doc.XWikiAttachment.loadAttachmentContent(XWikiAttachment.java:1060)
	at com.xpn.xwiki.doc.XWikiAttachment.reloadAttachmentContent(XWikiAttachment.java:883)
	at com.xpn.xwiki.doc.XWikiAttachment.getContentInputStream(XWikiAttachment.java:861)
	at org.xwiki.search.solr.internal.metadata.AbstractSolrMetadataExtractor.getContentAsText(AbstractSolrMetadataExtractor.java:506)
	at org.xwiki.search.solr.internal.metadata.AttachmentSolrMetadataExtractor.setLocaleAndContentFields(AttachmentSolrMetadataExtractor.java:111)
	at org.xwiki.search.solr.internal.metadata.AttachmentSolrMetadataExtractor.setFieldsInternal(AttachmentSolrMetadataExtractor.java:93)
	at org.xwiki.search.solr.internal.metadata.AbstractSolrMetadataExtractor.getSolrDocument(AbstractSolrMetadataExtractor.java:133)
	at org.xwiki.search.solr.internal.DefaultSolrIndexer.getSolrDocument(DefaultSolrIndexer.java:504)
	at org.xwiki.search.solr.internal.DefaultSolrIndexer.processBatch(DefaultSolrIndexer.java:411)
	at org.xwiki.search.solr.internal.DefaultSolrIndexer.run(DefaultSolrIndexer.java:377)
	at java.lang.Thread.run(Thread.java:748)
2019-07-19 09:46:13,146 [XWiki Solr index thread] ERROR ttachmentSolrMetadataExtractor - Failed to retrieve the content of attachment [Attachment xwiki:Main.WebHome@oioi.jpg] 
com.xpn.xwiki.XWikiException: Error number 3002 in 3: The attachment could not be found in the filesystem attachment store (/home/matheus/ahh/xwiki/data/storage/xwiki/%4Dain/%57eb%48ome/~this/attachments/oioi.jpg/oioi.jpg).

	at org.xwiki.store.legacy.store.internal.FilesystemAttachmentStore.loadAttachmentContent(FilesystemAttachmentStore.java:213)
	at com.xpn.xwiki.doc.XWikiAttachment.loadAttachmentContent(XWikiAttachment.java:1060)
	at com.xpn.xwiki.doc.XWikiAttachment.reloadAttachmentContent(XWikiAttachment.java:883)
	at com.xpn.xwiki.doc.XWikiAttachment.getContentInputStream(XWikiAttachment.java:861)
	at org.xwiki.search.solr.internal.metadata.AbstractSolrMetadataExtractor.getContentAsText(AbstractSolrMetadataExtractor.java:506)
	at org.xwiki.search.solr.internal.metadata.AttachmentSolrMetadataExtractor.setLocaleAndContentFields(AttachmentSolrMetadataExtractor.java:111)
	at org.xwiki.search.solr.internal.metadata.AttachmentSolrMetadataExtractor.setFieldsInternal(AttachmentSolrMetadataExtractor.java:93)
	at org.xwiki.search.solr.internal.metadata.AbstractSolrMetadataExtractor.getSolrDocument(AbstractSolrMetadataExtractor.java:133)
	at org.xwiki.search.solr.internal.DefaultSolrIndexer.getSolrDocument(DefaultSolrIndexer.java:504)
	at org.xwiki.search.solr.internal.DefaultSolrIndexer.processBatch(DefaultSolrIndexer.java:411)
	at org.xwiki.search.solr.internal.DefaultSolrIndexer.run(DefaultSolrIndexer.java:377)
	at java.lang.Thread.run(Thread.java:748)
2019-07-19 09:46:13,421 [XWiki Solr index thread] ERROR .DocumentSolrMetadataExtractor - Failed to retrieve the content of attachment [Attachment xwiki:Main.WebHome@image-20190712103338-1.jpeg] 
com.xpn.xwiki.XWikiException: Error number 3002 in 3: The attachment could not be found in the filesystem attachment store (/home/matheus/ahh/xwiki/data/storage/xwiki/%4Dain/%57eb%48ome/~this/attachments/image-20190712103338-1.jpeg/image-20190712103338-1.jpeg).

	at org.xwiki.store.legacy.store.internal.FilesystemAttachmentStore.loadAttachmentContent(FilesystemAttachmentStore.java:213)
	at com.xpn.xwiki.doc.XWikiAttachment.loadAttachmentContent(XWikiAttachment.java:1060)
	at com.xpn.xwiki.doc.XWikiAttachment.reloadAttachmentContent(XWikiAttachment.java:883)
	at com.xpn.xwiki.doc.XWikiAttachment.getContentInputStream(XWikiAttachment.java:861)
	at org.xwiki.search.solr.internal.metadata.AbstractSolrMetadataExtractor.getContentAsText(AbstractSolrMetadataExtractor.java:506)
	at org.xwiki.search.solr.internal.metadata.DocumentSolrMetadataExtractor.setAttachment(DocumentSolrMetadataExtractor.java:281)
	at org.xwiki.search.solr.internal.metadata.DocumentSolrMetadataExtractor.setAttachments(DocumentSolrMetadataExtractor.java:261)
	at org.xwiki.search.solr.internal.metadata.DocumentSolrMetadataExtractor.setExtras(DocumentSolrMetadataExtractor.java:187)
	at org.xwiki.search.solr.internal.metadata.DocumentSolrMetadataExtractor.setFieldsInternal(DocumentSolrMetadataExtractor.java:135)
	at org.xwiki.search.solr.internal.metadata.AbstractSolrMetadataExtractor.getSolrDocument(AbstractSolrMetadataExtractor.java:133)
	at org.xwiki.search.solr.internal.DefaultSolrIndexer.getSolrDocument(DefaultSolrIndexer.java:504)
	at org.xwiki.search.solr.internal.DefaultSolrIndexer.processBatch(DefaultSolrIndexer.java:411)
	at org.xwiki.search.solr.internal.DefaultSolrIndexer.run(DefaultSolrIndexer.java:377)
	at java.lang.Thread.run(Thread.java:748)
2019-07-19 09:46:13,422 [XWiki Solr index thread] ERROR .DocumentSolrMetadataExtractor - Failed to retrieve the content of attachment [Attachment xwiki:Main.WebHome@image-20190712103409-2.jpeg] 
com.xpn.xwiki.XWikiException: Error number 3002 in 3: The attachment could not be found in the filesystem attachment store (/home/matheus/ahh/xwiki/data/storage/xwiki/%4Dain/%57eb%48ome/~this/attachments/image-20190712103409-2.jpeg/image-20190712103409-2.jpeg).

	at org.xwiki.store.legacy.store.internal.FilesystemAttachmentStore.loadAttachmentContent(FilesystemAttachmentStore.java:213)
	at com.xpn.xwiki.doc.XWikiAttachment.loadAttachmentContent(XWikiAttachment.java:1060)
	at com.xpn.xwiki.doc.XWikiAttachment.reloadAttachmentContent(XWikiAttachment.java:883)
	at com.xpn.xwiki.doc.XWikiAttachment.getContentInputStream(XWikiAttachment.java:861)
	at org.xwiki.search.solr.internal.metadata.AbstractSolrMetadataExtractor.getContentAsText(AbstractSolrMetadataExtractor.java:506)
	at org.xwiki.search.solr.internal.metadata.DocumentSolrMetadataExtractor.setAttachment(DocumentSolrMetadataExtractor.java:281)
	at org.xwiki.search.solr.internal.metadata.DocumentSolrMetadataExtractor.setAttachments(DocumentSolrMetadataExtractor.java:261)
	at org.xwiki.search.solr.internal.metadata.DocumentSolrMetadataExtractor.setExtras(DocumentSolrMetadataExtractor.java:187)
	at org.xwiki.search.solr.internal.metadata.DocumentSolrMetadataExtractor.setFieldsInternal(DocumentSolrMetadataExtractor.java:135)
	at org.xwiki.search.solr.internal.metadata.AbstractSolrMetadataExtractor.getSolrDocument(AbstractSolrMetadataExtractor.java:133)
	at org.xwiki.search.solr.internal.DefaultSolrIndexer.getSolrDocument(DefaultSolrIndexer.java:504)
	at org.xwiki.search.solr.internal.DefaultSolrIndexer.processBatch(DefaultSolrIndexer.java:411)
	at org.xwiki.search.solr.internal.DefaultSolrIndexer.run(DefaultSolrIndexer.java:377)
	at java.lang.Thread.run(Thread.java:748)
2019-07-19 09:46:13,423 [XWiki Solr index thread] ERROR .DocumentSolrMetadataExtractor - Failed to retrieve the content of attachment [Attachment xwiki:Main.WebHome@image-20190712103455-1.jpeg] 
com.xpn.xwiki.XWikiException: Error number 3002 in 3: The attachment could not be found in the filesystem attachment store (/home/matheus/ahh/xwiki/data/storage/xwiki/%4Dain/%57eb%48ome/~this/attachments/image-20190712103455-1.jpeg/image-20190712103455-1.jpeg).

	at org.xwiki.store.legacy.store.internal.FilesystemAttachmentStore.loadAttachmentContent(FilesystemAttachmentStore.java:213)
	at com.xpn.xwiki.doc.XWikiAttachment.loadAttachmentContent(XWikiAttachment.java:1060)
	at com.xpn.xwiki.doc.XWikiAttachment.reloadAttachmentContent(XWikiAttachment.java:883)
	at com.xpn.xwiki.doc.XWikiAttachment.getContentInputStream(XWikiAttachment.java:861)
	at org.xwiki.search.solr.internal.metadata.AbstractSolrMetadataExtractor.getContentAsText(AbstractSolrMetadataExtractor.java:506)
	at org.xwiki.search.solr.internal.metadata.DocumentSolrMetadataExtractor.setAttachment(DocumentSolrMetadataExtractor.java:281)
	at org.xwiki.search.solr.internal.metadata.DocumentSolrMetadataExtractor.setAttachments(DocumentSolrMetadataExtractor.java:261)
	at org.xwiki.search.solr.internal.metadata.DocumentSolrMetadataExtractor.setExtras(DocumentSolrMetadataExtractor.java:187)
	at org.xwiki.search.solr.internal.metadata.DocumentSolrMetadataExtractor.setFieldsInternal(DocumentSolrMetadataExtractor.java:135)
	at org.xwiki.search.solr.internal.metadata.AbstractSolrMetadataExtractor.getSolrDocument(AbstractSolrMetadataExtractor.java:133)
	at org.xwiki.search.solr.internal.DefaultSolrIndexer.getSolrDocument(DefaultSolrIndexer.java:504)
	at org.xwiki.search.solr.internal.DefaultSolrIndexer.processBatch(DefaultSolrIndexer.java:411)
	at org.xwiki.search.solr.internal.DefaultSolrIndexer.run(DefaultSolrIndexer.java:377)
	at java.lang.Thread.run(Thread.java:748)
2019-07-19 09:46:13,424 [XWiki Solr index thread] ERROR .DocumentSolrMetadataExtractor - Failed to retrieve the content of attachment [Attachment xwiki:Main.WebHome@oioi.jpg] 
com.xpn.xwiki.XWikiException: Error number 3002 in 3: The attachment could not be found in the filesystem attachment store (/home/matheus/ahh/xwiki/data/storage/xwiki/%4Dain/%57eb%48ome/~this/attachments/oioi.jpg/oioi.jpg).

	at org.xwiki.store.legacy.store.internal.FilesystemAttachmentStore.loadAttachmentContent(FilesystemAttachmentStore.java:213)
	at com.xpn.xwiki.doc.XWikiAttachment.loadAttachmentContent(XWikiAttachment.java:1060)
	at com.xpn.xwiki.doc.XWikiAttachment.reloadAttachmentContent(XWikiAttachment.java:883)
	at com.xpn.xwiki.doc.XWikiAttachment.getContentInputStream(XWikiAttachment.java:861)
	at org.xwiki.search.solr.internal.metadata.AbstractSolrMetadataExtractor.getContentAsText(AbstractSolrMetadataExtractor.java:506)
	at org.xwiki.search.solr.internal.metadata.DocumentSolrMetadataExtractor.setAttachment(DocumentSolrMetadataExtractor.java:281)
	at org.xwiki.search.solr.internal.metadata.DocumentSolrMetadataExtractor.setAttachments(DocumentSolrMetadataExtractor.java:261)
	at org.xwiki.search.solr.internal.metadata.DocumentSolrMetadataExtractor.setExtras(DocumentSolrMetadataExtractor.java:187)
	at org.xwiki.search.solr.internal.metadata.DocumentSolrMetadataExtractor.setFieldsInternal(DocumentSolrMetadataExtractor.java:135)
	at org.xwiki.search.solr.internal.metadata.AbstractSolrMetadataExtractor.getSolrDocument(AbstractSolrMetadataExtractor.java:133)
	at org.xwiki.search.solr.internal.DefaultSolrIndexer.getSolrDocument(DefaultSolrIndexer.java:504)
	at org.xwiki.search.solr.internal.DefaultSolrIndexer.processBatch(DefaultSolrIndexer.java:411)
	at org.xwiki.search.solr.internal.DefaultSolrIndexer.run(DefaultSolrIndexer.java:377)
	at java.lang.Thread.run(Thread.java:748)
2019-07-19 09:46:13,577 [XWiki Solr index thread] ERROR .DocumentSolrMetadataExtractor - Failed to retrieve the content of attachment [Attachment xwiki:Turbina.WebHome@122f01.jpg] 
com.xpn.xwiki.XWikiException: Error number 3002 in 3: The attachment could not be found in the filesystem attachment store (/home/matheus/ahh/xwiki/data/storage/xwiki/%54urbina/%57eb%48ome/~this/attachments/122f01.jpg/122f01.jpg).

	at org.xwiki.store.legacy.store.internal.FilesystemAttachmentStore.loadAttachmentContent(FilesystemAttachmentStore.java:213)
	at com.xpn.xwiki.doc.XWikiAttachment.loadAttachmentContent(XWikiAttachment.java:1060)
	at com.xpn.xwiki.doc.XWikiAttachment.reloadAttachmentContent(XWikiAttachment.java:883)
	at com.xpn.xwiki.doc.XWikiAttachment.getContentInputStream(XWikiAttachment.java:861)
	at org.xwiki.search.solr.internal.metadata.AbstractSolrMetadataExtractor.getContentAsText(AbstractSolrMetadataExtractor.java:506)
	at org.xwiki.search.solr.internal.metadata.DocumentSolrMetadataExtractor.setAttachment(DocumentSolrMetadataExtractor.java:281)
	at org.xwiki.search.solr.internal.metadata.DocumentSolrMetadataExtractor.setAttachments(DocumentSolrMetadataExtractor.java:261)
	at org.xwiki.search.solr.internal.metadata.DocumentSolrMetadataExtractor.setExtras(DocumentSolrMetadataExtractor.java:187)
	at org.xwiki.search.solr.internal.metadata.DocumentSolrMetadataExtractor.setFieldsInternal(DocumentSolrMetadataExtractor.java:135)
	at org.xwiki.search.solr.internal.metadata.AbstractSolrMetadataExtractor.getSolrDocument(AbstractSolrMetadataExtractor.java:133)
	at org.xwiki.search.solr.internal.DefaultSolrIndexer.getSolrDocument(DefaultSolrIndexer.java:504)
	at org.xwiki.search.solr.internal.DefaultSolrIndexer.processBatch(DefaultSolrIndexer.java:411)
	at org.xwiki.search.solr.internal.DefaultSolrIndexer.run(DefaultSolrIndexer.java:377)
	at java.lang.Thread.run(Thread.java:748)
2019-07-19 09:46:14,176 [XWiki Solr index thread] ERROR ttachmentSolrMetadataExtractor - Failed to retrieve the content of attachment [Attachment xwiki:Turbina.WebHome@122f01.jpg] 
com.xpn.xwiki.XWikiException: Error number 3002 in 3: The attachment could not be found in the filesystem attachment store (/home/matheus/ahh/xwiki/data/storage/xwiki/%54urbina/%57eb%48ome/~this/attachments/122f01.jpg/122f01.jpg).

	at org.xwiki.store.legacy.store.internal.FilesystemAttachmentStore.loadAttachmentContent(FilesystemAttachmentStore.java:213)
	at com.xpn.xwiki.doc.XWikiAttachment.loadAttachmentContent(XWikiAttachment.java:1060)
	at com.xpn.xwiki.doc.XWikiAttachment.reloadAttachmentContent(XWikiAttachment.java:883)
	at com.xpn.xwiki.doc.XWikiAttachment.getContentInputStream(XWikiAttachment.java:861)
	at org.xwiki.search.solr.internal.metadata.AbstractSolrMetadataExtractor.getContentAsText(AbstractSolrMetadataExtractor.java:506)
	at org.xwiki.search.solr.internal.metadata.AttachmentSolrMetadataExtractor.setLocaleAndContentFields(AttachmentSolrMetadataExtractor.java:111)
	at org.xwiki.search.solr.internal.metadata.AttachmentSolrMetadataExtractor.setFieldsInternal(AttachmentSolrMetadataExtractor.java:93)
	at org.xwiki.search.solr.internal.metadata.AbstractSolrMetadataExtractor.getSolrDocument(AbstractSolrMetadataExtractor.java:133)
	at org.xwiki.search.solr.internal.DefaultSolrIndexer.getSolrDocument(DefaultSolrIndexer.java:504)
	at org.xwiki.search.solr.internal.DefaultSolrIndexer.processBatch(DefaultSolrIndexer.java:411)
	at org.xwiki.search.solr.internal.DefaultSolrIndexer.run(DefaultSolrIndexer.java:377)
	at java.lang.Thread.run(Thread.java:748)
2019-07-19 09:46:30,271 [http://localhost:8080/xwiki/bin/download/Main/WebHome/oioi.jpg?width=451&height=497] WARN  c.x.x.p.i.ImagePlugin          - Failed to transform image attachment. 
com.xpn.xwiki.XWikiException: Error number 3002 in 3: The attachment could not be found in the filesystem attachment store (/home/matheus/ahh/xwiki/data/storage/xwiki/%4Dain/%57eb%48ome/~this/attachments/oioi.jpg/oioi.jpg).

	at org.xwiki.store.legacy.store.internal.FilesystemAttachmentStore.loadAttachmentContent(FilesystemAttachmentStore.java:213)
	at com.xpn.xwiki.doc.XWikiAttachment.loadAttachmentContent(XWikiAttachment.java:1060)
	at com.xpn.xwiki.doc.XWikiAttachment.reloadAttachmentContent(XWikiAttachment.java:883)
	at com.xpn.xwiki.doc.XWikiAttachment.getContentInputStream(XWikiAttachment.java:861)
	at com.xpn.xwiki.plugin.image.ImagePlugin.shrinkImage(ImagePlugin.java:315)
	at com.xpn.xwiki.plugin.image.ImagePlugin.downloadImageFromCache(ImagePlugin.java:289)
	at com.xpn.xwiki.plugin.image.ImagePlugin.downloadImage(ImagePlugin.java:254)
	at com.xpn.xwiki.plugin.image.ImagePlugin.downloadAttachment(ImagePlugin.java:225)
	at com.xpn.xwiki.plugin.XWikiPluginManager.downloadAttachment(XWikiPluginManager.java:287)
	at com.xpn.xwiki.web.DownloadAction.render(DownloadAction.java:149)
	at com.xpn.xwiki.web.XWikiAction.execute(XWikiAction.java:459)
	at com.xpn.xwiki.web.XWikiAction.execute(XWikiAction.java:209)
	at org.apache.struts.action.RequestProcessor.processActionPerform(RequestProcessor.java:425)
	at org.apache.struts.action.RequestProcessor.process(RequestProcessor.java:228)
	at org.apache.struts.action.ActionServlet.process(ActionServlet.java:1913)
	at org.apache.struts.action.ActionServlet.doGet(ActionServlet.java:449)
	at javax.servlet.http.HttpServlet.service(HttpServlet.java:687)
	at javax.servlet.http.HttpServlet.service(HttpServlet.java:790)
	at org.eclipse.jetty.servlet.ServletHolder.handle(ServletHolder.java:860)
	at org.eclipse.jetty.servlet.ServletHandler$CachedChain.doFilter(ServletHandler.java:1650)
	at com.xpn.xwiki.web.ActionFilter.doFilter(ActionFilter.java:112)
	at org.eclipse.jetty.servlet.ServletHandler$CachedChain.doFilter(ServletHandler.java:1637)
	at org.xwiki.wysiwyg.filter.ConversionFilter.doFilter(ConversionFilter.java:127)
	at org.eclipse.jetty.servlet.ServletHandler$CachedChain.doFilter(ServletHandler.java:1637)
	at org.xwiki.container.servlet.filters.internal.SetHTTPHeaderFilter.doFilter(SetHTTPHeaderFilter.java:63)
	at org.eclipse.jetty.servlet.ServletHandler$CachedChain.doFilter(ServletHandler.java:1637)
	at org.xwiki.container.servlet.filters.internal.SavedRequestRestorerFilter.doFilter(SavedRequestRestorerFilter.java:208)
	at org.eclipse.jetty.servlet.ServletHandler$CachedChain.doFilter(ServletHandler.java:1637)
	at org.xwiki.container.servlet.filters.internal.SetCharacterEncodingFilter.doFilter(SetCharacterEncodingFilter.java:111)
	at org.eclipse.jetty.servlet.ServletHandler$CachedChain.doFilter(ServletHandler.java:1637)
	at org.xwiki.resource.servlet.RoutingFilter.doFilter(RoutingFilter.java:134)
	at org.eclipse.jetty.servlet.ServletHandler$CachedChain.doFilter(ServletHandler.java:1629)
	at org.eclipse.jetty.servlet.ServletHandler.doHandle(ServletHandler.java:533)
	at org.eclipse.jetty.server.handler.ScopedHandler.handle(ScopedHandler.java:143)
	at org.eclipse.jetty.security.SecurityHandler.handle(SecurityHandler.java:548)
	at org.eclipse.jetty.server.handler.HandlerWrapper.handle(HandlerWrapper.java:132)
	at org.eclipse.jetty.server.handler.ScopedHandler.nextHandle(ScopedHandler.java:190)
	at org.eclipse.jetty.server.session.SessionHandler.doHandle(SessionHandler.java:1595)
	at org.eclipse.jetty.server.handler.ScopedHandler.nextHandle(ScopedHandler.java:188)
	at org.eclipse.jetty.server.handler.ContextHandler.doHandle(ContextHandler.java:1253)
	at org.eclipse.jetty.server.handler.ScopedHandler.nextScope(ScopedHandler.java:168)
	at org.eclipse.jetty.servlet.ServletHandler.doScope(ServletHandler.java:473)
	at org.eclipse.jetty.server.session.SessionHandler.doScope(SessionHandler.java:1564)
	at org.eclipse.jetty.server.handler.ScopedHandler.nextScope(ScopedHandler.java:166)
	at org.eclipse.jetty.server.handler.ContextHandler.doScope(ContextHandler.java:1155)
	at org.eclipse.jetty.server.handler.ScopedHandler.handle(ScopedHandler.java:141)
	at org.eclipse.jetty.server.handler.ContextHandlerCollection.handle(ContextHandlerCollection.java:219)
	at org.eclipse.jetty.server.handler.HandlerCollection.handle(HandlerCollection.java:126)
	at org.eclipse.jetty.server.handler.HandlerWrapper.handle(HandlerWrapper.java:132)
	at org.eclipse.jetty.server.Server.handle(Server.java:530)
	at org.eclipse.jetty.server.HttpChannel.handle(HttpChannel.java:347)
	at org.eclipse.jetty.server.HttpConnection.onFillable(HttpConnection.java:256)
	at org.eclipse.jetty.io.AbstractConnection$ReadCallback.succeeded(AbstractConnection.java:279)
	at org.eclipse.jetty.io.FillInterest.fillable(FillInterest.java:102)
	at org.eclipse.jetty.io.ChannelEndPoint$2.run(ChannelEndPoint.java:124)
	at org.eclipse.jetty.util.thread.strategy.EatWhatYouKill.doProduce(EatWhatYouKill.java:247)
	at org.eclipse.jetty.util.thread.strategy.EatWhatYouKill.produce(EatWhatYouKill.java:140)
	at org.eclipse.jetty.util.thread.strategy.EatWhatYouKill.run(EatWhatYouKill.java:131)
	at org.eclipse.jetty.util.thread.ReservedThreadExecutor$ReservedThread.run(ReservedThreadExecutor.java:382)
	at org.eclipse.jetty.util.thread.QueuedThreadPool.runJob(QueuedThreadPool.java:708)
	at org.eclipse.jetty.util.thread.QueuedThreadPool$2.run(QueuedThreadPool.java:626)
	at java.lang.Thread.run(Thread.java:748)
2019-07-19 09:46:33.737:INFO:oxtjl.NotifyListener:Thread-1: ----------------------------------
2019-07-19 09:46:33.737:INFO:oxtjl.NotifyListener:Thread-1: Server stopping, please wait while all resources are closed...
2019-07-19 09:46:33.748:INFO:oejs.AbstractConnector:Thread-1: Stopped ServerConnector@6e5a77ef{HTTP/1.1,[http/1.1]}{0.0.0.0:8080}
2019-07-19 09:46:33.750:INFO:oejs.session:Thread-1: Stopped scavenging
2019-07-19 09:47:04.290:INFO:oejsh.ContextHandler:Thread-1: Stopped o.e.j.w.WebAppContext@12c8a2c0{/xwiki,null,UNAVAILABLE}{/xwiki}
2019-07-19 09:47:04.292:INFO:oejsh.ContextHandler:Thread-1: Stopped o.e.j.w.WebAppContext@10bdf5e5{/,null,UNAVAILABLE}{/root}
2019-07-19 09:47:04.295:INFO:oxtjl.NotifyListener:Thread-1: Done!
