127.0.0.1 - - [19/jul/2019:12:25:03 +0000] "GET /xwiki/bin/view/Main/ HTTP/1.1" 500 8922 
127.0.0.1 - - [19/jul/2019:12:25:08 +0000] "GET / HTTP/1.1" 302 0 
127.0.0.1 - - [19/jul/2019:12:25:08 +0000] "GET /xwiki HTTP/1.1" 302 0 
127.0.0.1 - - [19/jul/2019:12:25:08 +0000] "GET /xwiki/ HTTP/1.1" 302 0 
127.0.0.1 - - [19/jul/2019:12:25:08 +0000] "GET /xwiki/bin/view/Main/ HTTP/1.1" 500 9834 
