2019-07-19 09:26:25.157:INFO:oejs.Server:main: jetty-9.4.8.v20171121, build timestamp: 2017-11-21T19:27:37-02:00, git hash: 82b8fb23f757335bb3329d540ce37a2a2615f0a8
2019-07-19 09:26:25.194:INFO:oejs.AbstractNCSARequestLog:main: Opened /home/matheus/ahh/xwiki/data/logs/2019_07_19.request.log
2019-07-19 09:26:25.198:INFO:oejdp.ScanningAppProvider:main: Deployment monitor [file:///home/matheus/ahh/xwiki/jetty/contexts/] at interval 0
2019-07-19 09:26:25.436:INFO:oejs.session:main: DefaultSessionIdManager workerName=node0
2019-07-19 09:26:25.436:INFO:oejs.session:main: No SessionScavenger set, using defaults
2019-07-19 09:26:25.440:INFO:oejs.session:main: Scavenging every 600000ms
2019-07-19 09:26:25.479:INFO:oejsh.ContextHandler:main: Started o.e.j.w.WebAppContext@10bdf5e5{/,file:///home/matheus/ahh/xwiki/webapps/root/,AVAILABLE}{/root}
2019-07-19 09:26:26.131:WARN:oeja.AnnotationParser:main: Unknown asm runtime version, assuming version 393216
2019-07-19 09:26:26.135:INFO:oeja.AnnotationConfiguration:main: Scanning elapsed time=2ms
2019-07-19 09:26:33,653 [main] INFO  iPropertiesConfigurationSource - loading xwiki.properties from file:/home/matheus/ahh/xwiki/webapps/xwiki/WEB-INF/xwiki.properties 
2019-07-19 09:26:33,814 [main] INFO  o.x.e.i.ServletEnvironment     - Using permanent directory [data] 
2019-07-19 09:26:41,393 [main] INFO  o.x.s.s.i.EmbeddedSolrInstance - Starting embedded Solr server... 
2019-07-19 09:26:41,397 [main] INFO  o.x.s.s.i.EmbeddedSolrInstance - Using Solr home directory: [data/solr] 
2019-07-19 09:26:43,506 [coreLoadExecutor-6-thread-1] WARN  o.a.s.c.SolrResourceLoader     - Solr loaded a deprecated plugin/analysis class [solr.SynonymFilterFactory]. Please consult documentation how to replace it accordingly. 
2019-07-19 09:26:46,350 [coreLoadExecutor-6-thread-1] WARN  o.i.j.ResourceDMBean           - ISPN000042: Did not find queried attribute with name coreHashCode 
2019-07-19 09:26:46,351 [coreLoadExecutor-6-thread-1] WARN  o.i.j.ResourceDMBean           - ISPN000042: Did not find queried attribute with name coreHashCode 
2019-07-19 09:26:46,351 [coreLoadExecutor-6-thread-1] WARN  o.i.j.ResourceDMBean           - ISPN000042: Did not find queried attribute with name coreHashCode 
2019-07-19 09:26:46,352 [coreLoadExecutor-6-thread-1] WARN  o.i.j.ResourceDMBean           - ISPN000042: Did not find queried attribute with name coreHashCode 
2019-07-19 09:26:46,352 [coreLoadExecutor-6-thread-1] WARN  o.i.j.ResourceDMBean           - ISPN000042: Did not find queried attribute with name coreHashCode 
2019-07-19 09:26:46,352 [coreLoadExecutor-6-thread-1] WARN  o.i.j.ResourceDMBean           - ISPN000042: Did not find queried attribute with name coreHashCode 
2019-07-19 09:26:46,352 [coreLoadExecutor-6-thread-1] WARN  o.i.j.ResourceDMBean           - ISPN000042: Did not find queried attribute with name coreHashCode 
2019-07-19 09:26:46,353 [coreLoadExecutor-6-thread-1] WARN  o.i.j.ResourceDMBean           - ISPN000042: Did not find queried attribute with name coreHashCode 
2019-07-19 09:26:46,353 [coreLoadExecutor-6-thread-1] WARN  o.i.j.ResourceDMBean           - ISPN000042: Did not find queried attribute with name coreHashCode 
2019-07-19 09:26:46,353 [coreLoadExecutor-6-thread-1] WARN  o.i.j.ResourceDMBean           - ISPN000042: Did not find queried attribute with name coreHashCode 
2019-07-19 09:26:46,354 [coreLoadExecutor-6-thread-1] WARN  o.i.j.ResourceDMBean           - ISPN000042: Did not find queried attribute with name coreHashCode 
2019-07-19 09:26:46,354 [coreLoadExecutor-6-thread-1] WARN  o.i.j.ResourceDMBean           - ISPN000042: Did not find queried attribute with name coreHashCode 
2019-07-19 09:26:46,354 [coreLoadExecutor-6-thread-1] WARN  o.i.j.ResourceDMBean           - ISPN000042: Did not find queried attribute with name coreHashCode 
2019-07-19 09:26:46,354 [coreLoadExecutor-6-thread-1] WARN  o.i.j.ResourceDMBean           - ISPN000042: Did not find queried attribute with name coreHashCode 
2019-07-19 09:26:46,355 [coreLoadExecutor-6-thread-1] WARN  o.i.j.ResourceDMBean           - ISPN000042: Did not find queried attribute with name coreHashCode 
2019-07-19 09:26:46,356 [coreLoadExecutor-6-thread-1] WARN  o.i.j.ResourceDMBean           - ISPN000042: Did not find queried attribute with name coreHashCode 
2019-07-19 09:26:46,356 [coreLoadExecutor-6-thread-1] WARN  o.i.j.ResourceDMBean           - ISPN000042: Did not find queried attribute with name coreHashCode 
2019-07-19 09:26:46,356 [coreLoadExecutor-6-thread-1] WARN  o.i.j.ResourceDMBean           - ISPN000042: Did not find queried attribute with name coreHashCode 
2019-07-19 09:26:46,357 [coreLoadExecutor-6-thread-1] WARN  o.i.j.ResourceDMBean           - ISPN000042: Did not find queried attribute with name coreHashCode 
2019-07-19 09:26:46,357 [coreLoadExecutor-6-thread-1] WARN  o.i.j.ResourceDMBean           - ISPN000042: Did not find queried attribute with name coreHashCode 
2019-07-19 09:26:46,357 [coreLoadExecutor-6-thread-1] WARN  o.i.j.ResourceDMBean           - ISPN000042: Did not find queried attribute with name coreHashCode 
2019-07-19 09:26:46,358 [coreLoadExecutor-6-thread-1] WARN  o.i.j.ResourceDMBean           - ISPN000042: Did not find queried attribute with name coreHashCode 
2019-07-19 09:26:46,358 [coreLoadExecutor-6-thread-1] WARN  o.i.j.ResourceDMBean           - ISPN000042: Did not find queried attribute with name coreHashCode 
2019-07-19 09:26:46,358 [coreLoadExecutor-6-thread-1] WARN  o.i.j.ResourceDMBean           - ISPN000042: Did not find queried attribute with name coreHashCode 
2019-07-19 09:26:46,358 [coreLoadExecutor-6-thread-1] WARN  o.i.j.ResourceDMBean           - ISPN000042: Did not find queried attribute with name coreHashCode 
2019-07-19 09:26:46,359 [coreLoadExecutor-6-thread-1] WARN  o.i.j.ResourceDMBean           - ISPN000042: Did not find queried attribute with name coreHashCode 
2019-07-19 09:26:46,359 [coreLoadExecutor-6-thread-1] WARN  o.i.j.ResourceDMBean           - ISPN000042: Did not find queried attribute with name coreHashCode 
2019-07-19 09:26:46,359 [coreLoadExecutor-6-thread-1] WARN  o.i.j.ResourceDMBean           - ISPN000042: Did not find queried attribute with name coreHashCode 
2019-07-19 09:26:46,359 [coreLoadExecutor-6-thread-1] WARN  o.i.j.ResourceDMBean           - ISPN000042: Did not find queried attribute with name coreHashCode 
2019-07-19 09:26:46,360 [coreLoadExecutor-6-thread-1] WARN  o.i.j.ResourceDMBean           - ISPN000042: Did not find queried attribute with name coreHashCode 
2019-07-19 09:26:46,360 [coreLoadExecutor-6-thread-1] WARN  o.i.j.ResourceDMBean           - ISPN000042: Did not find queried attribute with name coreHashCode 
2019-07-19 09:26:46,360 [coreLoadExecutor-6-thread-1] WARN  o.i.j.ResourceDMBean           - ISPN000042: Did not find queried attribute with name coreHashCode 
2019-07-19 09:26:46,360 [coreLoadExecutor-6-thread-1] WARN  o.i.j.ResourceDMBean           - ISPN000042: Did not find queried attribute with name coreHashCode 
2019-07-19 09:26:46,361 [coreLoadExecutor-6-thread-1] WARN  o.i.j.ResourceDMBean           - ISPN000042: Did not find queried attribute with name coreHashCode 
2019-07-19 09:26:46,361 [coreLoadExecutor-6-thread-1] WARN  o.i.j.ResourceDMBean           - ISPN000042: Did not find queried attribute with name coreHashCode 
2019-07-19 09:26:46,361 [coreLoadExecutor-6-thread-1] WARN  o.i.j.ResourceDMBean           - ISPN000042: Did not find queried attribute with name coreHashCode 
2019-07-19 09:26:46,361 [coreLoadExecutor-6-thread-1] WARN  o.i.j.ResourceDMBean           - ISPN000042: Did not find queried attribute with name coreHashCode 
2019-07-19 09:26:46,361 [coreLoadExecutor-6-thread-1] WARN  o.i.j.ResourceDMBean           - ISPN000042: Did not find queried attribute with name coreHashCode 
2019-07-19 09:26:46,362 [coreLoadExecutor-6-thread-1] WARN  o.i.j.ResourceDMBean           - ISPN000042: Did not find queried attribute with name coreHashCode 
2019-07-19 09:26:46,362 [coreLoadExecutor-6-thread-1] WARN  o.i.j.ResourceDMBean           - ISPN000042: Did not find queried attribute with name coreHashCode 
2019-07-19 09:26:46,362 [coreLoadExecutor-6-thread-1] WARN  o.i.j.ResourceDMBean           - ISPN000042: Did not find queried attribute with name coreHashCode 
2019-07-19 09:26:46,362 [coreLoadExecutor-6-thread-1] WARN  o.i.j.ResourceDMBean           - ISPN000042: Did not find queried attribute with name coreHashCode 
2019-07-19 09:26:46,363 [coreLoadExecutor-6-thread-1] WARN  o.i.j.ResourceDMBean           - ISPN000042: Did not find queried attribute with name coreHashCode 
2019-07-19 09:26:46,363 [coreLoadExecutor-6-thread-1] WARN  o.i.j.ResourceDMBean           - ISPN000042: Did not find queried attribute with name coreHashCode 
2019-07-19 09:26:46,363 [coreLoadExecutor-6-thread-1] WARN  o.i.j.ResourceDMBean           - ISPN000042: Did not find queried attribute with name coreHashCode 
2019-07-19 09:26:46,364 [coreLoadExecutor-6-thread-1] WARN  o.i.j.ResourceDMBean           - ISPN000042: Did not find queried attribute with name coreHashCode 
2019-07-19 09:26:46,364 [coreLoadExecutor-6-thread-1] WARN  o.i.j.ResourceDMBean           - ISPN000042: Did not find queried attribute with name coreHashCode 
2019-07-19 09:26:46,364 [coreLoadExecutor-6-thread-1] WARN  o.i.j.ResourceDMBean           - ISPN000042: Did not find queried attribute with name coreHashCode 
2019-07-19 09:26:46,365 [coreLoadExecutor-6-thread-1] WARN  o.i.j.ResourceDMBean           - ISPN000042: Did not find queried attribute with name coreHashCode 
2019-07-19 09:26:46,368 [coreLoadExecutor-6-thread-1] WARN  o.i.j.ResourceDMBean           - ISPN000042: Did not find queried attribute with name coreHashCode 
2019-07-19 09:26:46,368 [coreLoadExecutor-6-thread-1] WARN  o.i.j.ResourceDMBean           - ISPN000042: Did not find queried attribute with name coreHashCode 
2019-07-19 09:26:46,369 [coreLoadExecutor-6-thread-1] WARN  o.i.j.ResourceDMBean           - ISPN000042: Did not find queried attribute with name coreHashCode 
2019-07-19 09:26:46,369 [coreLoadExecutor-6-thread-1] WARN  o.i.j.ResourceDMBean           - ISPN000042: Did not find queried attribute with name coreHashCode 
2019-07-19 09:26:46,369 [coreLoadExecutor-6-thread-1] WARN  o.i.j.ResourceDMBean           - ISPN000042: Did not find queried attribute with name coreHashCode 
2019-07-19 09:26:46,370 [coreLoadExecutor-6-thread-1] WARN  o.i.j.ResourceDMBean           - ISPN000042: Did not find queried attribute with name coreHashCode 
2019-07-19 09:26:46,370 [coreLoadExecutor-6-thread-1] WARN  o.i.j.ResourceDMBean           - ISPN000042: Did not find queried attribute with name coreHashCode 
2019-07-19 09:26:46,370 [coreLoadExecutor-6-thread-1] WARN  o.i.j.ResourceDMBean           - ISPN000042: Did not find queried attribute with name coreHashCode 
2019-07-19 09:26:46,371 [coreLoadExecutor-6-thread-1] WARN  o.i.j.ResourceDMBean           - ISPN000042: Did not find queried attribute with name coreHashCode 
2019-07-19 09:26:46,371 [coreLoadExecutor-6-thread-1] WARN  o.i.j.ResourceDMBean           - ISPN000042: Did not find queried attribute with name coreHashCode 
2019-07-19 09:26:46,372 [coreLoadExecutor-6-thread-1] WARN  o.i.j.ResourceDMBean           - ISPN000042: Did not find queried attribute with name coreHashCode 
2019-07-19 09:26:46,372 [coreLoadExecutor-6-thread-1] WARN  o.i.j.ResourceDMBean           - ISPN000042: Did not find queried attribute with name coreHashCode 
2019-07-19 09:26:46,372 [coreLoadExecutor-6-thread-1] WARN  o.i.j.ResourceDMBean           - ISPN000042: Did not find queried attribute with name coreHashCode 
2019-07-19 09:26:46,373 [coreLoadExecutor-6-thread-1] WARN  o.i.j.ResourceDMBean           - ISPN000042: Did not find queried attribute with name coreHashCode 
2019-07-19 09:26:46,373 [coreLoadExecutor-6-thread-1] WARN  o.i.j.ResourceDMBean           - ISPN000042: Did not find queried attribute with name coreHashCode 
2019-07-19 09:26:46,373 [coreLoadExecutor-6-thread-1] WARN  o.i.j.ResourceDMBean           - ISPN000042: Did not find queried attribute with name coreHashCode 
2019-07-19 09:26:46,374 [coreLoadExecutor-6-thread-1] WARN  o.i.j.ResourceDMBean           - ISPN000042: Did not find queried attribute with name coreHashCode 
2019-07-19 09:26:46,374 [coreLoadExecutor-6-thread-1] WARN  o.i.j.ResourceDMBean           - ISPN000042: Did not find queried attribute with name coreHashCode 
2019-07-19 09:26:46,374 [coreLoadExecutor-6-thread-1] WARN  o.i.j.ResourceDMBean           - ISPN000042: Did not find queried attribute with name coreHashCode 
2019-07-19 09:26:46,374 [coreLoadExecutor-6-thread-1] WARN  o.i.j.ResourceDMBean           - ISPN000042: Did not find queried attribute with name coreHashCode 
2019-07-19 09:26:46,374 [coreLoadExecutor-6-thread-1] WARN  o.i.j.ResourceDMBean           - ISPN000042: Did not find queried attribute with name coreHashCode 
2019-07-19 09:26:46,376 [coreLoadExecutor-6-thread-1] WARN  o.i.j.ResourceDMBean           - ISPN000042: Did not find queried attribute with name coreHashCode 
2019-07-19 09:26:46,377 [coreLoadExecutor-6-thread-1] WARN  o.i.j.ResourceDMBean           - ISPN000042: Did not find queried attribute with name coreHashCode 
2019-07-19 09:26:46,377 [coreLoadExecutor-6-thread-1] WARN  o.i.j.ResourceDMBean           - ISPN000042: Did not find queried attribute with name coreHashCode 
2019-07-19 09:26:46,377 [coreLoadExecutor-6-thread-1] WARN  o.i.j.ResourceDMBean           - ISPN000042: Did not find queried attribute with name coreHashCode 
2019-07-19 09:26:46,377 [coreLoadExecutor-6-thread-1] WARN  o.i.j.ResourceDMBean           - ISPN000042: Did not find queried attribute with name coreHashCode 
2019-07-19 09:26:46,378 [coreLoadExecutor-6-thread-1] WARN  o.i.j.ResourceDMBean           - ISPN000042: Did not find queried attribute with name coreHashCode 
2019-07-19 09:26:46,378 [coreLoadExecutor-6-thread-1] WARN  o.i.j.ResourceDMBean           - ISPN000042: Did not find queried attribute with name coreHashCode 
2019-07-19 09:26:46,378 [coreLoadExecutor-6-thread-1] WARN  o.i.j.ResourceDMBean           - ISPN000042: Did not find queried attribute with name coreHashCode 
2019-07-19 09:26:46,378 [coreLoadExecutor-6-thread-1] WARN  o.i.j.ResourceDMBean           - ISPN000042: Did not find queried attribute with name coreHashCode 
2019-07-19 09:26:46,378 [coreLoadExecutor-6-thread-1] WARN  o.i.j.ResourceDMBean           - ISPN000042: Did not find queried attribute with name coreHashCode 
2019-07-19 09:26:46,378 [coreLoadExecutor-6-thread-1] WARN  o.i.j.ResourceDMBean           - ISPN000042: Did not find queried attribute with name coreHashCode 
2019-07-19 09:26:46,379 [coreLoadExecutor-6-thread-1] WARN  o.i.j.ResourceDMBean           - ISPN000042: Did not find queried attribute with name coreHashCode 
2019-07-19 09:26:46,379 [coreLoadExecutor-6-thread-1] WARN  o.i.j.ResourceDMBean           - ISPN000042: Did not find queried attribute with name coreHashCode 
2019-07-19 09:26:46,379 [coreLoadExecutor-6-thread-1] WARN  o.i.j.ResourceDMBean           - ISPN000042: Did not find queried attribute with name coreHashCode 
2019-07-19 09:26:46,379 [coreLoadExecutor-6-thread-1] WARN  o.i.j.ResourceDMBean           - ISPN000042: Did not find queried attribute with name coreHashCode 
2019-07-19 09:26:46,388 [coreLoadExecutor-6-thread-1] ERROR o.a.s.c.CoreContainer          - Error creating core [xwiki]: Error opening new searcher 
org.apache.solr.common.SolrException: Error opening new searcher
	at org.apache.solr.core.SolrCore.<init>(SolrCore.java:952)
	at org.apache.solr.core.SolrCore.<init>(SolrCore.java:816)
	at org.apache.solr.core.CoreContainer.create(CoreContainer.java:890)
	at org.apache.solr.core.CoreContainer.lambda$load$3(CoreContainer.java:542)
	at com.codahale.metrics.InstrumentedExecutorService$InstrumentedCallable.call(InstrumentedExecutorService.java:197)
	at java.util.concurrent.FutureTask.run(FutureTask.java:266)
	at org.apache.solr.common.util.ExecutorUtil$MDCAwareThreadPoolExecutor.lambda$execute$0(ExecutorUtil.java:229)
	at java.util.concurrent.ThreadPoolExecutor.runWorker(ThreadPoolExecutor.java:1149)
	at java.util.concurrent.ThreadPoolExecutor$Worker.run(ThreadPoolExecutor.java:624)
	at java.lang.Thread.run(Thread.java:748)
Caused by: org.apache.solr.common.SolrException: Error opening new searcher
	at org.apache.solr.core.SolrCore.openNewSearcher(SolrCore.java:1891)
	at org.apache.solr.core.SolrCore.getSearcher(SolrCore.java:2011)
	at org.apache.solr.core.SolrCore.initSearcher(SolrCore.java:1041)
	at org.apache.solr.core.SolrCore.<init>(SolrCore.java:925)
	... 9 common frames omitted
Caused by: org.apache.lucene.index.IndexNotFoundException: no segments* file found in LockValidatingDirectoryWrapper(NRTCachingDirectory(MMapDirectory@/home/matheus/ahh/xwiki/data/solr/xwiki/data/index lockFactory=org.apache.lucene.store.NativeFSLockFactory@3878a6e5; maxCacheMB=48.0 maxMergeSizeMB=4.0)): files: [_1av.fdt, _1av.fdx, _1av.fnm, _1av.nvd, _1av.nvm, _1av.si, _1av_32.liv, _1av_Lucene50_0.doc, _1av_Lucene50_0.pos, _1av_Lucene50_0.tim, _1av_Lucene50_0.tip, _1av_Lucene54_0.dvd, _1av_Lucene54_0.dvm, _1uh.fdt, _1uh.fdx, _1uh.fnm, _1uh.nvd, _1uh.nvm, _1uh.si, _1uh_Lucene50_0.doc, _1uh_Lucene50_0.pos, _1uh_Lucene50_0.tim, _1uh_Lucene50_0.tip, _1uh_Lucene54_0.dvd, _1uh_Lucene54_0.dvm, _1uk.fdt, _1uk.fdx, _1uk.fnm, _1uk.nvd, _1uk.nvm, _1uk.si, _1uk_1.liv, _1uk_Lucene50_0.doc, _1uk_Lucene50_0.pos, _1uk_Lucene50_0.tim, _1uk_Lucene50_0.tip, _1uk_Lucene54_0.dvd, _1uk_Lucene54_0.dvm, _1ul.fdt, _1ul.fdx, _1ul.fnm, _1ul.nvd, _1ul.nvm, _1ul.si, _1ul_Lucene50_0.doc, _1ul_Lucene50_0.pos, _1ul_Lucene50_0.tim, _1ul_Lucene50_0.tip, _1ul_Lucene54_0.dvd, _1ul_Lucene54_0.dvm, _1un.fdt, _1un.fdx, _1un.fnm, _1un.nvd, _1un.nvm, _1un.si, _1un_Lucene50_0.doc, _1un_Lucene50_0.pos, _1un_Lucene50_0.tim, _1un_Lucene50_0.tip, _1un_Lucene54_0.dvd, _1un_Lucene54_0.dvm, _1uo.fdt, _1uo.fdx, _1uo.fnm, _1uo.nvd, _1uo.nvm, _1uo.si, _1uo_Lucene50_0.doc, _1uo_Lucene50_0.pos, _1uo_Lucene50_0.tim, _1uo_Lucene50_0.tip, _1uo_Lucene54_0.dvd, _1uo_Lucene54_0.dvm, _1up.fdt, _1up.fdx, _1up.fnm, _1up.nvd, _1up.nvm, _1up.si, _1up_Lucene50_0.doc, _1up_Lucene50_0.pos, _1up_Lucene50_0.tim, _1up_Lucene50_0.tip, _1up_Lucene54_0.dvd, _1up_Lucene54_0.dvm, _kq.fdt, _kq.fdx, _kq.fnm, _kq.nvd, _kq.nvm, _kq.si, _kq_9j.liv, _kq_Lucene50_0.doc, _kq_Lucene50_0.pos, _kq_Lucene50_0.tim, _kq_Lucene50_0.tip, _kq_Lucene54_0.dvd, _kq_Lucene54_0.dvm, write.lock]
	at org.apache.lucene.index.IndexWriter.<init>(IndexWriter.java:933)
	at org.apache.solr.update.SolrIndexWriter.<init>(SolrIndexWriter.java:125)
	at org.apache.solr.update.SolrIndexWriter.create(SolrIndexWriter.java:100)
	at org.apache.solr.update.DefaultSolrCoreState.createMainIndexWriter(DefaultSolrCoreState.java:240)
	at org.apache.solr.update.DefaultSolrCoreState.getIndexWriter(DefaultSolrCoreState.java:114)
	at org.apache.solr.core.SolrCore.openNewSearcher(SolrCore.java:1852)
	... 12 common frames omitted
2019-07-19 09:26:46,391 [main] ERROR .o.i.DefaultObservationManager - Failed to lookup listeners 
org.xwiki.component.manager.ComponentLookupException: Failed to lookup component with type [interface org.xwiki.observation.EventListener] and hint [solr.availablelocales]
	at org.xwiki.component.embed.EmbeddableComponentManager.getInstanceMap(EmbeddableComponentManager.java:240)
	at org.xwiki.component.embed.EmbeddableComponentManager.getInstanceList(EmbeddableComponentManager.java:220)
	at org.xwiki.observation.internal.DefaultObservationManager.initializeListeners(DefaultObservationManager.java:165)
	at org.xwiki.observation.internal.DefaultObservationManager.getListenersByEvent(DefaultObservationManager.java:131)
	at org.xwiki.observation.internal.DefaultObservationManager.notify(DefaultObservationManager.java:267)
	at org.xwiki.component.internal.StackingComponentEventManager.sendEvent(StackingComponentEventManager.java:142)
	at org.xwiki.component.internal.StackingComponentEventManager.flushEvents(StackingComponentEventManager.java:92)
	at org.xwiki.extension.jar.internal.handler.JarExtensionHandler.loadComponents(JarExtensionHandler.java:237)
	at org.xwiki.extension.jar.internal.handler.JarExtensionHandler.install(JarExtensionHandler.java:165)
	at org.xwiki.extension.jar.internal.handler.JarExtensionHandler.initialize(JarExtensionHandler.java:143)
	at org.xwiki.extension.handler.internal.DefaultExtensionHandlerManager.initialize(DefaultExtensionHandlerManager.java:154)
	at org.xwiki.extension.handler.internal.DefaultExtensionInitializer.initializeExtensionInNamespace(DefaultExtensionInitializer.java:202)
	at org.xwiki.extension.handler.internal.DefaultExtensionInitializer.initializeExtensionInNamespace(DefaultExtensionInitializer.java:161)
	at org.xwiki.extension.handler.internal.DefaultExtensionInitializer.initializeExtensionInNamespace(DefaultExtensionInitializer.java:189)
	at org.xwiki.extension.handler.internal.DefaultExtensionInitializer.initializeExtensionInNamespace(DefaultExtensionInitializer.java:161)
	at org.xwiki.extension.handler.internal.DefaultExtensionInitializer.initializeExtensionInNamespace(DefaultExtensionInitializer.java:173)
	at org.xwiki.extension.handler.internal.DefaultExtensionInitializer.initializeExtensionInNamespace(DefaultExtensionInitializer.java:161)
	at org.xwiki.extension.handler.internal.DefaultExtensionInitializer.initializeExtensionInNamespace(DefaultExtensionInitializer.java:189)
	at org.xwiki.extension.handler.internal.DefaultExtensionInitializer.initializeExtensionInNamespace(DefaultExtensionInitializer.java:161)
	at org.xwiki.extension.handler.internal.DefaultExtensionInitializer.initializeExtension(DefaultExtensionInitializer.java:127)
	at org.xwiki.extension.handler.internal.DefaultExtensionInitializer.initialize(DefaultExtensionInitializer.java:105)
	at org.xwiki.extension.handler.internal.DefaultExtensionInitializer.initialize(DefaultExtensionInitializer.java:81)
	at org.xwiki.component.embed.InitializableLifecycleHandler.handle(InitializableLifecycleHandler.java:39)
	at org.xwiki.component.embed.EmbeddableComponentManager.createInstance(EmbeddableComponentManager.java:360)
	at org.xwiki.component.embed.EmbeddableComponentManager.getComponentInstance(EmbeddableComponentManager.java:446)
	at org.xwiki.component.embed.EmbeddableComponentManager.getInstance(EmbeddableComponentManager.java:196)
	at org.xwiki.component.embed.EmbeddableComponentManager.getInstance(EmbeddableComponentManager.java:184)
	at org.xwiki.container.servlet.XWikiServletContextListener.contextInitialized(XWikiServletContextListener.java:120)
	at org.eclipse.jetty.server.handler.ContextHandler.callContextInitialized(ContextHandler.java:890)
	at org.eclipse.jetty.servlet.ServletContextHandler.callContextInitialized(ServletContextHandler.java:532)
	at org.eclipse.jetty.server.handler.ContextHandler.startContext(ContextHandler.java:853)
	at org.eclipse.jetty.servlet.ServletContextHandler.startContext(ServletContextHandler.java:344)
	at org.eclipse.jetty.webapp.WebAppContext.startWebapp(WebAppContext.java:1515)
	at org.eclipse.jetty.webapp.WebAppContext.startContext(WebAppContext.java:1477)
	at org.eclipse.jetty.server.handler.ContextHandler.doStart(ContextHandler.java:785)
	at org.eclipse.jetty.servlet.ServletContextHandler.doStart(ServletContextHandler.java:261)
	at org.eclipse.jetty.webapp.WebAppContext.doStart(WebAppContext.java:545)
	at org.eclipse.jetty.util.component.AbstractLifeCycle.start(AbstractLifeCycle.java:68)
	at org.eclipse.jetty.deploy.bindings.StandardStarter.processBinding(StandardStarter.java:41)
	at org.eclipse.jetty.deploy.AppLifeCycle.runBindings(AppLifeCycle.java:188)
	at org.eclipse.jetty.deploy.DeploymentManager.requestAppGoal(DeploymentManager.java:502)
	at org.eclipse.jetty.deploy.DeploymentManager.addApp(DeploymentManager.java:150)
	at org.eclipse.jetty.deploy.providers.ScanningAppProvider.fileAdded(ScanningAppProvider.java:180)
	at org.eclipse.jetty.deploy.providers.WebAppProvider.fileAdded(WebAppProvider.java:453)
	at org.eclipse.jetty.deploy.providers.ScanningAppProvider$1.fileAdded(ScanningAppProvider.java:64)
	at org.eclipse.jetty.util.Scanner.reportAddition(Scanner.java:610)
	at org.eclipse.jetty.util.Scanner.reportDifferences(Scanner.java:529)
	at org.eclipse.jetty.util.Scanner.scan(Scanner.java:392)
	at org.eclipse.jetty.util.Scanner.doStart(Scanner.java:313)
	at org.eclipse.jetty.util.component.AbstractLifeCycle.start(AbstractLifeCycle.java:68)
	at org.eclipse.jetty.deploy.providers.ScanningAppProvider.doStart(ScanningAppProvider.java:150)
	at org.eclipse.jetty.util.component.AbstractLifeCycle.start(AbstractLifeCycle.java:68)
	at org.eclipse.jetty.deploy.DeploymentManager.startAppProvider(DeploymentManager.java:564)
	at org.eclipse.jetty.deploy.DeploymentManager.doStart(DeploymentManager.java:239)
	at org.eclipse.jetty.util.component.AbstractLifeCycle.start(AbstractLifeCycle.java:68)
	at org.eclipse.jetty.util.component.ContainerLifeCycle.start(ContainerLifeCycle.java:133)
	at org.eclipse.jetty.server.Server.start(Server.java:418)
	at org.eclipse.jetty.util.component.ContainerLifeCycle.doStart(ContainerLifeCycle.java:115)
	at org.eclipse.jetty.server.handler.AbstractHandler.doStart(AbstractHandler.java:113)
	at org.eclipse.jetty.server.Server.doStart(Server.java:385)
	at org.eclipse.jetty.util.component.AbstractLifeCycle.start(AbstractLifeCycle.java:68)
	at org.eclipse.jetty.xml.XmlConfiguration$1.run(XmlConfiguration.java:1584)
	at org.eclipse.jetty.xml.XmlConfiguration$1.run(XmlConfiguration.java:1508)
	at java.security.AccessController.doPrivileged(Native Method)
	at org.eclipse.jetty.xml.XmlConfiguration.main(XmlConfiguration.java:1507)
	at sun.reflect.NativeMethodAccessorImpl.invoke0(Native Method)
	at sun.reflect.NativeMethodAccessorImpl.invoke(NativeMethodAccessorImpl.java:62)
	at sun.reflect.DelegatingMethodAccessorImpl.invoke(DelegatingMethodAccessorImpl.java:43)
	at java.lang.reflect.Method.invoke(Method.java:498)
	at org.eclipse.jetty.start.Main.invokeMain(Main.java:221)
	at org.eclipse.jetty.start.Main.start(Main.java:504)
	at org.eclipse.jetty.start.Main.main(Main.java:78)
Caused by: org.xwiki.component.manager.ComponentLookupException: Failed to lookup component [org.xwiki.search.solr.internal.SolrInstanceProvider] identified by type [javax.inject.Provider<org.xwiki.search.solr.internal.api.SolrInstance>] and hint [default]
	at org.xwiki.component.embed.EmbeddableComponentManager.getInstance(EmbeddableComponentManager.java:199)
	at org.xwiki.component.embed.EmbeddableComponentManager.getDependencyInstance(EmbeddableComponentManager.java:394)
	at org.xwiki.component.embed.EmbeddableComponentManager.createInstance(EmbeddableComponentManager.java:350)
	at org.xwiki.component.embed.EmbeddableComponentManager.getComponentInstance(EmbeddableComponentManager.java:446)
	at org.xwiki.component.embed.EmbeddableComponentManager.getInstanceMap(EmbeddableComponentManager.java:237)
	... 71 common frames omitted
Caused by: org.xwiki.component.phase.InitializationException: Failed to lookup configured Solr instance type [embedded]
	at org.xwiki.search.solr.internal.SolrInstanceProvider.initialize(SolrInstanceProvider.java:67)
	at org.xwiki.component.embed.InitializableLifecycleHandler.handle(InitializableLifecycleHandler.java:39)
	at org.xwiki.component.embed.EmbeddableComponentManager.createInstance(EmbeddableComponentManager.java:360)
	at org.xwiki.component.embed.EmbeddableComponentManager.getComponentInstance(EmbeddableComponentManager.java:446)
	at org.xwiki.component.embed.EmbeddableComponentManager.getInstance(EmbeddableComponentManager.java:196)
	... 75 common frames omitted
Caused by: org.xwiki.component.manager.ComponentLookupException: Failed to lookup component [org.xwiki.search.solr.internal.EmbeddedSolrInstance] identified by type [interface org.xwiki.search.solr.internal.api.SolrInstance] and hint [embedded]
	at org.xwiki.component.embed.EmbeddableComponentManager.getInstance(EmbeddableComponentManager.java:199)
	at org.xwiki.search.solr.internal.SolrInstanceProvider.initialize(SolrInstanceProvider.java:64)
	... 79 common frames omitted
Caused by: org.xwiki.component.phase.InitializationException: Failed to initialize the Solr embedded server with home directory set to [data/solr]
	at org.xwiki.search.solr.internal.EmbeddedSolrInstance.initialize(EmbeddedSolrInstance.java:103)
	at org.xwiki.component.embed.InitializableLifecycleHandler.handle(InitializableLifecycleHandler.java:39)
	at org.xwiki.component.embed.EmbeddableComponentManager.createInstance(EmbeddableComponentManager.java:360)
	at org.xwiki.component.embed.EmbeddableComponentManager.getComponentInstance(EmbeddableComponentManager.java:446)
	at org.xwiki.component.embed.EmbeddableComponentManager.getInstance(EmbeddableComponentManager.java:196)
	... 80 common frames omitted
Caused by: org.apache.solr.client.solrj.SolrServerException: Failed to initialize the Solr core. Please check the configuration and log messages.
	at org.xwiki.search.solr.internal.EmbeddedSolrInstance.createCoreContainer(EmbeddedSolrInstance.java:113)
	at org.xwiki.search.solr.internal.EmbeddedSolrInstance.initialize(EmbeddedSolrInstance.java:96)
	... 84 common frames omitted
2019-07-19 09:26:46.867:INFO:oejsh.ContextHandler:main: Started o.e.j.w.WebAppContext@12c8a2c0{/xwiki,file:///home/matheus/ahh/xwiki/webapps/xwiki/,AVAILABLE}{/xwiki}
2019-07-19 09:26:46.891:INFO:oejs.AbstractConnector:main: Started ServerConnector@450f0d89{HTTP/1.1,[http/1.1]}{0.0.0.0:8080}
2019-07-19 09:26:46.891:INFO:oejs.Server:main: Started @22552ms
2019-07-19 09:26:46.891:INFO:oxtjl.NotifyListener:main: ----------------------------------
2019-07-19 09:26:46.893:INFO:oxtjl.NotifyListener:main: O servidor foi iniciado. Agora você pode acessar o seu wiki, digitando http://localhost:8080/ no seu browser.
2019-07-19 09:26:46.893:INFO:oxtjl.NotifyListener:main: ----------------------------------
2019-07-19 09:26:57.881:WARN:oejshC.xwiki:http://localhost:8080/xwiki/bin/view/Main/: unavailable
javax.servlet.UnavailableException: Cannot initialize RequestProcessor of class com.xpn.xwiki.web.XWikiRequestProcessor: java.lang.NullPointerException
	at org.apache.struts.action.ActionServlet.getRequestProcessor(ActionServlet.java:614)
	at org.apache.struts.action.ActionServlet.process(ActionServlet.java:1910)
	at org.apache.struts.action.ActionServlet.doGet(ActionServlet.java:449)
	at javax.servlet.http.HttpServlet.service(HttpServlet.java:687)
	at javax.servlet.http.HttpServlet.service(HttpServlet.java:790)
	at org.eclipse.jetty.servlet.ServletHolder.handle(ServletHolder.java:860)
	at org.eclipse.jetty.servlet.ServletHandler$CachedChain.doFilter(ServletHandler.java:1650)
	at com.xpn.xwiki.web.ActionFilter.doFilter(ActionFilter.java:112)
	at org.eclipse.jetty.servlet.ServletHandler$CachedChain.doFilter(ServletHandler.java:1637)
	at org.xwiki.wysiwyg.filter.ConversionFilter.doFilter(ConversionFilter.java:127)
	at org.eclipse.jetty.servlet.ServletHandler$CachedChain.doFilter(ServletHandler.java:1637)
	at org.xwiki.container.servlet.filters.internal.SetHTTPHeaderFilter.doFilter(SetHTTPHeaderFilter.java:63)
	at org.eclipse.jetty.servlet.ServletHandler$CachedChain.doFilter(ServletHandler.java:1637)
	at org.xwiki.container.servlet.filters.internal.SavedRequestRestorerFilter.doFilter(SavedRequestRestorerFilter.java:208)
	at org.eclipse.jetty.servlet.ServletHandler$CachedChain.doFilter(ServletHandler.java:1637)
	at org.xwiki.container.servlet.filters.internal.SetCharacterEncodingFilter.doFilter(SetCharacterEncodingFilter.java:111)
	at org.eclipse.jetty.servlet.ServletHandler$CachedChain.doFilter(ServletHandler.java:1637)
	at org.xwiki.resource.servlet.RoutingFilter.doFilter(RoutingFilter.java:134)
	at org.eclipse.jetty.servlet.ServletHandler$CachedChain.doFilter(ServletHandler.java:1629)
	at org.eclipse.jetty.servlet.ServletHandler.doHandle(ServletHandler.java:533)
	at org.eclipse.jetty.server.handler.ScopedHandler.handle(ScopedHandler.java:143)
	at org.eclipse.jetty.security.SecurityHandler.handle(SecurityHandler.java:548)
	at org.eclipse.jetty.server.handler.HandlerWrapper.handle(HandlerWrapper.java:132)
	at org.eclipse.jetty.server.handler.ScopedHandler.nextHandle(ScopedHandler.java:190)
	at org.eclipse.jetty.server.session.SessionHandler.doHandle(SessionHandler.java:1595)
	at org.eclipse.jetty.server.handler.ScopedHandler.nextHandle(ScopedHandler.java:188)
	at org.eclipse.jetty.server.handler.ContextHandler.doHandle(ContextHandler.java:1253)
	at org.eclipse.jetty.server.handler.ScopedHandler.nextScope(ScopedHandler.java:168)
	at org.eclipse.jetty.servlet.ServletHandler.doScope(ServletHandler.java:473)
	at org.eclipse.jetty.server.session.SessionHandler.doScope(SessionHandler.java:1564)
	at org.eclipse.jetty.server.handler.ScopedHandler.nextScope(ScopedHandler.java:166)
	at org.eclipse.jetty.server.handler.ContextHandler.doScope(ContextHandler.java:1155)
	at org.eclipse.jetty.server.handler.ScopedHandler.handle(ScopedHandler.java:141)
	at org.eclipse.jetty.server.handler.ContextHandlerCollection.handle(ContextHandlerCollection.java:219)
	at org.eclipse.jetty.server.handler.HandlerCollection.handle(HandlerCollection.java:126)
	at org.eclipse.jetty.server.handler.HandlerWrapper.handle(HandlerWrapper.java:132)
	at org.eclipse.jetty.server.Server.handle(Server.java:530)
	at org.eclipse.jetty.server.HttpChannel.handle(HttpChannel.java:347)
	at org.eclipse.jetty.server.HttpConnection.onFillable(HttpConnection.java:256)
	at org.eclipse.jetty.io.AbstractConnection$ReadCallback.succeeded(AbstractConnection.java:279)
	at org.eclipse.jetty.io.FillInterest.fillable(FillInterest.java:102)
	at org.eclipse.jetty.io.ChannelEndPoint$2.run(ChannelEndPoint.java:124)
	at org.eclipse.jetty.util.thread.strategy.EatWhatYouKill.doProduce(EatWhatYouKill.java:247)
	at org.eclipse.jetty.util.thread.strategy.EatWhatYouKill.produce(EatWhatYouKill.java:140)
	at org.eclipse.jetty.util.thread.strategy.EatWhatYouKill.run(EatWhatYouKill.java:131)
	at org.eclipse.jetty.util.thread.ReservedThreadExecutor$ReservedThread.run(ReservedThreadExecutor.java:382)
	at org.eclipse.jetty.util.thread.QueuedThreadPool.runJob(QueuedThreadPool.java:708)
	at org.eclipse.jetty.util.thread.QueuedThreadPool$2.run(QueuedThreadPool.java:626)
	at java.lang.Thread.run(Thread.java:748)
2019-07-19 09:26:57.884:WARN:oejs.HttpChannel:qtp1094834071-14: /xwiki/bin/view/Main/
javax.servlet.ServletException: javax.servlet.UnavailableException: Cannot initialize RequestProcessor of class com.xpn.xwiki.web.XWikiRequestProcessor: java.lang.NullPointerException
	at org.eclipse.jetty.server.handler.HandlerCollection.handle(HandlerCollection.java:146)
	at org.eclipse.jetty.server.handler.HandlerWrapper.handle(HandlerWrapper.java:132)
	at org.eclipse.jetty.server.Server.handle(Server.java:530)
	at org.eclipse.jetty.server.HttpChannel.handle(HttpChannel.java:347)
	at org.eclipse.jetty.server.HttpConnection.onFillable(HttpConnection.java:256)
	at org.eclipse.jetty.io.AbstractConnection$ReadCallback.succeeded(AbstractConnection.java:279)
	at org.eclipse.jetty.io.FillInterest.fillable(FillInterest.java:102)
	at org.eclipse.jetty.io.ChannelEndPoint$2.run(ChannelEndPoint.java:124)
	at org.eclipse.jetty.util.thread.strategy.EatWhatYouKill.doProduce(EatWhatYouKill.java:247)
	at org.eclipse.jetty.util.thread.strategy.EatWhatYouKill.produce(EatWhatYouKill.java:140)
	at org.eclipse.jetty.util.thread.strategy.EatWhatYouKill.run(EatWhatYouKill.java:131)
	at org.eclipse.jetty.util.thread.ReservedThreadExecutor$ReservedThread.run(ReservedThreadExecutor.java:382)
	at org.eclipse.jetty.util.thread.QueuedThreadPool.runJob(QueuedThreadPool.java:708)
	at org.eclipse.jetty.util.thread.QueuedThreadPool$2.run(QueuedThreadPool.java:626)
	at java.lang.Thread.run(Thread.java:748)
Caused by: 
javax.servlet.UnavailableException: Cannot initialize RequestProcessor of class com.xpn.xwiki.web.XWikiRequestProcessor: java.lang.NullPointerException
	at org.apache.struts.action.ActionServlet.getRequestProcessor(ActionServlet.java:614)
	at org.apache.struts.action.ActionServlet.process(ActionServlet.java:1910)
	at org.apache.struts.action.ActionServlet.doGet(ActionServlet.java:449)
	at javax.servlet.http.HttpServlet.service(HttpServlet.java:687)
	at javax.servlet.http.HttpServlet.service(HttpServlet.java:790)
	at org.eclipse.jetty.servlet.ServletHolder.handle(ServletHolder.java:860)
	at org.eclipse.jetty.servlet.ServletHandler$CachedChain.doFilter(ServletHandler.java:1650)
	at com.xpn.xwiki.web.ActionFilter.doFilter(ActionFilter.java:112)
	at org.eclipse.jetty.servlet.ServletHandler$CachedChain.doFilter(ServletHandler.java:1637)
	at org.xwiki.wysiwyg.filter.ConversionFilter.doFilter(ConversionFilter.java:127)
	at org.eclipse.jetty.servlet.ServletHandler$CachedChain.doFilter(ServletHandler.java:1637)
	at org.xwiki.container.servlet.filters.internal.SetHTTPHeaderFilter.doFilter(SetHTTPHeaderFilter.java:63)
	at org.eclipse.jetty.servlet.ServletHandler$CachedChain.doFilter(ServletHandler.java:1637)
	at org.xwiki.container.servlet.filters.internal.SavedRequestRestorerFilter.doFilter(SavedRequestRestorerFilter.java:208)
	at org.eclipse.jetty.servlet.ServletHandler$CachedChain.doFilter(ServletHandler.java:1637)
	at org.xwiki.container.servlet.filters.internal.SetCharacterEncodingFilter.doFilter(SetCharacterEncodingFilter.java:111)
	at org.eclipse.jetty.servlet.ServletHandler$CachedChain.doFilter(ServletHandler.java:1637)
	at org.xwiki.resource.servlet.RoutingFilter.doFilter(RoutingFilter.java:134)
	at org.eclipse.jetty.servlet.ServletHandler$CachedChain.doFilter(ServletHandler.java:1629)
	at org.eclipse.jetty.servlet.ServletHandler.doHandle(ServletHandler.java:533)
	at org.eclipse.jetty.server.handler.ScopedHandler.handle(ScopedHandler.java:143)
	at org.eclipse.jetty.security.SecurityHandler.handle(SecurityHandler.java:548)
	at org.eclipse.jetty.server.handler.HandlerWrapper.handle(HandlerWrapper.java:132)
	at org.eclipse.jetty.server.handler.ScopedHandler.nextHandle(ScopedHandler.java:190)
	at org.eclipse.jetty.server.session.SessionHandler.doHandle(SessionHandler.java:1595)
	at org.eclipse.jetty.server.handler.ScopedHandler.nextHandle(ScopedHandler.java:188)
	at org.eclipse.jetty.server.handler.ContextHandler.doHandle(ContextHandler.java:1253)
	at org.eclipse.jetty.server.handler.ScopedHandler.nextScope(ScopedHandler.java:168)
	at org.eclipse.jetty.servlet.ServletHandler.doScope(ServletHandler.java:473)
	at org.eclipse.jetty.server.session.SessionHandler.doScope(SessionHandler.java:1564)
	at org.eclipse.jetty.server.handler.ScopedHandler.nextScope(ScopedHandler.java:166)
	at org.eclipse.jetty.server.handler.ContextHandler.doScope(ContextHandler.java:1155)
	at org.eclipse.jetty.server.handler.ScopedHandler.handle(ScopedHandler.java:141)
	at org.eclipse.jetty.server.handler.ContextHandlerCollection.handle(ContextHandlerCollection.java:219)
	at org.eclipse.jetty.server.handler.HandlerCollection.handle(HandlerCollection.java:126)
	at org.eclipse.jetty.server.handler.HandlerWrapper.handle(HandlerWrapper.java:132)
	at org.eclipse.jetty.server.Server.handle(Server.java:530)
	at org.eclipse.jetty.server.HttpChannel.handle(HttpChannel.java:347)
	at org.eclipse.jetty.server.HttpConnection.onFillable(HttpConnection.java:256)
	at org.eclipse.jetty.io.AbstractConnection$ReadCallback.succeeded(AbstractConnection.java:279)
	at org.eclipse.jetty.io.FillInterest.fillable(FillInterest.java:102)
	at org.eclipse.jetty.io.ChannelEndPoint$2.run(ChannelEndPoint.java:124)
	at org.eclipse.jetty.util.thread.strategy.EatWhatYouKill.doProduce(EatWhatYouKill.java:247)
	at org.eclipse.jetty.util.thread.strategy.EatWhatYouKill.produce(EatWhatYouKill.java:140)
	at org.eclipse.jetty.util.thread.strategy.EatWhatYouKill.run(EatWhatYouKill.java:131)
	at org.eclipse.jetty.util.thread.ReservedThreadExecutor$ReservedThread.run(ReservedThreadExecutor.java:382)
	at org.eclipse.jetty.util.thread.QueuedThreadPool.runJob(QueuedThreadPool.java:708)
	at org.eclipse.jetty.util.thread.QueuedThreadPool$2.run(QueuedThreadPool.java:626)
	at java.lang.Thread.run(Thread.java:748)
2019-07-19 09:27:25,210 [Finalizer] ERROR o.a.s.u.SolrIndexWriter        - SolrIndexWriter was not closed prior to finalize(), indicates a bug -- POSSIBLE RESOURCE LEAK!!! 
2019-07-19 09:27:25,213 [Finalizer] ERROR o.a.s.u.SolrIndexWriter        - Error closing IndexWriter 
java.lang.NullPointerException: null
	at org.apache.lucene.index.IndexWriter.doFlush(IndexWriter.java:3402)
	at org.apache.lucene.index.IndexWriter.flush(IndexWriter.java:3364)
	at org.apache.lucene.index.IndexWriter.shutdown(IndexWriter.java:1130)
	at org.apache.lucene.index.IndexWriter.close(IndexWriter.java:1175)
	at org.apache.solr.update.SolrIndexWriter.close(SolrIndexWriter.java:291)
	at org.apache.solr.update.SolrIndexWriter.finalize(SolrIndexWriter.java:347)
	at java.lang.System$2.invokeFinalize(System.java:1270)
	at java.lang.ref.Finalizer.runFinalizer(Finalizer.java:102)
	at java.lang.ref.Finalizer.access$100(Finalizer.java:34)
	at java.lang.ref.Finalizer$FinalizerThread.run(Finalizer.java:217)
2019-07-19 09:27:31.356:INFO:oxtjl.NotifyListener:Thread-1: ----------------------------------
2019-07-19 09:27:31.356:INFO:oxtjl.NotifyListener:Thread-1: Server stopping, please wait while all resources are closed...
2019-07-19 09:27:31.360:INFO:oejs.AbstractConnector:Thread-1: Stopped ServerConnector@450f0d89{HTTP/1.1,[http/1.1]}{0.0.0.0:8080}
2019-07-19 09:27:31.363:INFO:oejs.session:Thread-1: Stopped scavenging
2019-07-19 09:28:14.566:INFO:oejsh.ContextHandler:Thread-1: Stopped o.e.j.w.WebAppContext@12c8a2c0{/xwiki,null,UNAVAILABLE}{/xwiki}
2019-07-19 09:28:14.568:INFO:oejsh.ContextHandler:Thread-1: Stopped o.e.j.w.WebAppContext@10bdf5e5{/,null,UNAVAILABLE}{/root}
2019-07-19 09:28:14.570:INFO:oxtjl.NotifyListener:Thread-1: Done!
