2019-06-18 11:16:50.915:INFO:oejs.Server:main: jetty-9.4.8.v20171121, build timestamp: 2017-11-21T19:27:37-02:00, git hash: 82b8fb23f757335bb3329d540ce37a2a2615f0a8
2019-06-18 11:16:50.942:INFO:oejs.AbstractNCSARequestLog:main: Opened E:\Xwiki\Aplicação\data\logs\2019_06_18.request.log
2019-06-18 11:16:50.948:INFO:oejdp.ScanningAppProvider:main: Deployment monitor [file:///E:/Xwiki/Aplica%C3%A7%C3%A3o/jetty/contexts/] at interval 0
