2019-07-18 11:10:53.531:INFO:oejs.Server:main: jetty-9.4.8.v20171121, build timestamp: 2017-11-21T19:27:37-02:00, git hash: 82b8fb23f757335bb3329d540ce37a2a2615f0a8
2019-07-18 11:10:53.555:INFO:oejs.AbstractNCSARequestLog:main: Opened /home/matheus/Área de trabalho/xwiki-platform-distribution-flavor-jetty-hsqldb-10.7/data/logs/2019_07_18.request.log
2019-07-18 11:10:53.558:INFO:oejdp.ScanningAppProvider:main: Deployment monitor [file:///home/matheus/%C3%81rea%20de%20trabalho/xwiki-platform-distribution-flavor-jetty-hsqldb-10.7/jetty/contexts/] at interval 0
2019-07-18 11:10:54.408:WARN:oeja.AnnotationParser:main: Unknown asm runtime version, assuming version 393216
2019-07-18 11:10:54.417:INFO:oeja.AnnotationConfiguration:main: Scanning elapsed time=7ms
2019-07-18 11:10:55.357:INFO:oejs.session:main: DefaultSessionIdManager workerName=node0
2019-07-18 11:10:55.357:INFO:oejs.session:main: No SessionScavenger set, using defaults
2019-07-18 11:10:55.362:INFO:oejs.session:main: Scavenging every 660000ms
2019-07-18 11:11:01,820 [main] INFO  iPropertiesConfigurationSource - loading xwiki.properties from file:/home/matheus/%C3%81rea%20de%20trabalho/xwiki-platform-distribution-flavor-jetty-hsqldb-10.7/webapps/xwiki/WEB-INF/xwiki.properties 
2019-07-18 11:11:02,023 [main] INFO  o.x.e.i.ServletEnvironment     - Using permanent directory [data] 
2019-07-18 11:11:10,299 [main] INFO  o.x.s.s.i.EmbeddedSolrInstance - Starting embedded Solr server... 
2019-07-18 11:11:10,304 [main] INFO  o.x.s.s.i.EmbeddedSolrInstance - Using Solr home directory: [data/solr] 
2019-07-18 11:11:12,692 [coreLoadExecutor-6-thread-1] WARN  o.a.s.c.SolrResourceLoader     - Solr loaded a deprecated plugin/analysis class [solr.SynonymFilterFactory]. Please consult documentation how to replace it accordingly. 
2019-07-18 11:11:16,526 [main] INFO  o.x.s.s.i.EmbeddedSolrInstance - Started embedded Solr server. 
2019-07-18 11:11:19.090:INFO:oejsh.ContextHandler:main: Started o.e.j.w.WebAppContext@10bdf5e5{/xwiki,file:///home/matheus/%C3%81rea%20de%20trabalho/xwiki-platform-distribution-flavor-jetty-hsqldb-10.7/webapps/xwiki/,AVAILABLE}{/xwiki}
2019-07-18 11:11:19.114:INFO:oejsh.ContextHandler:main: Started o.e.j.w.WebAppContext@322593ed{/,file:///home/matheus/%C3%81rea%20de%20trabalho/xwiki-platform-distribution-flavor-jetty-hsqldb-10.7/webapps/root/,AVAILABLE}{/root}
2019-07-18 11:11:19.141:INFO:oejs.AbstractConnector:main: Started ServerConnector@281028ce{HTTP/1.1,[http/1.1]}{0.0.0.0:8080}
2019-07-18 11:11:19.141:INFO:oejs.Server:main: Started @26437ms
2019-07-18 11:11:19.141:INFO:oxtjl.NotifyListener:main: ----------------------------------
2019-07-18 11:11:19.143:INFO:oxtjl.NotifyListener:main: O servidor foi iniciado. Agora você pode acessar o seu wiki, digitando http://localhost:8080/ no seu browser.
2019-07-18 11:11:19.143:INFO:oxtjl.NotifyListener:main: ----------------------------------
2019-07-18 11:11:27,733 [XWiki initialization] INFO  .HibernateDataMigrationManager - Storage schema updates and data migrations are enabled 
2019-07-18 11:11:28,296 [XWiki initialization] INFO  .HibernateDataMigrationManager - No data migration to apply for wiki [xwiki] currently in version [1004001] 
2019-07-18 11:11:28,296 [XWiki initialization] INFO  .HibernateDataMigrationManager - Checking Hibernate mapping and updating schema if needed for wiki [xwiki] 
2019-07-18 11:11:28,962 [Core extension repository updater] ERROR aultExtensionRepositoryManager - Unexpected error when trying to find extension [org.eclipse.jetty:jetty-xml/9.4.8.v20171121] in repository [maven-xwiki:maven:http://nexus.xwiki.org/nexus/content/groups/public] 
org.xwiki.extension.ResolveException: Failed to resolve artifact [org.eclipse.jetty:jetty-xml:jar:9.4.8.v20171121] descriptor
	at org.xwiki.extension.repository.aether.internal.AetherExtensionRepository.resolveMaven(AetherExtensionRepository.java:403)
	at org.xwiki.extension.repository.aether.internal.AetherExtensionRepository.resolveMaven(AetherExtensionRepository.java:386)
	at org.xwiki.extension.repository.aether.internal.AetherExtensionRepository.resolveMaven(AetherExtensionRepository.java:380)
	at org.xwiki.extension.repository.aether.internal.AetherExtensionRepository.resolve(AetherExtensionRepository.java:186)
	at org.xwiki.extension.repository.internal.DefaultExtensionRepositoryManager.resolve(DefaultExtensionRepositoryManager.java:286)
	at org.xwiki.extension.repository.internal.core.DefaultCoreExtensionScanner.updateExtensions(DefaultCoreExtensionScanner.java:116)
	at org.xwiki.extension.repository.internal.core.DefaultCoreExtensionRepository$1.run(DefaultCoreExtensionRepository.java:138)
	at java.lang.Thread.run(Thread.java:748)
Caused by: org.eclipse.aether.resolution.ArtifactResolutionException: Could not transfer artifact org.eclipse.jetty:jetty-xml:pom:9.4.8.v20171121 from/to maven-xwiki (http://nexus.xwiki.org/nexus/content/groups/public): Connect to nexus.xwiki.org:80 timed out
	at org.eclipse.aether.internal.impl.DefaultArtifactResolver.resolve(DefaultArtifactResolver.java:444)
	at org.eclipse.aether.internal.impl.DefaultArtifactResolver.resolveArtifacts(DefaultArtifactResolver.java:246)
	at org.eclipse.aether.internal.impl.DefaultArtifactResolver.resolveArtifact(DefaultArtifactResolver.java:223)
	at org.xwiki.extension.repository.aether.internal.AetherExtensionRepository.loadPom(AetherExtensionRepository.java:514)
	at org.xwiki.extension.repository.aether.internal.AetherExtensionRepository.resolveMaven(AetherExtensionRepository.java:397)
	... 7 common frames omitted
Caused by: org.eclipse.aether.transfer.ArtifactTransferException: Could not transfer artifact org.eclipse.jetty:jetty-xml:pom:9.4.8.v20171121 from/to maven-xwiki (http://nexus.xwiki.org/nexus/content/groups/public): Connect to nexus.xwiki.org:80 timed out
	at org.eclipse.aether.connector.basic.ArtifactTransportListener.transferFailed(ArtifactTransportListener.java:43)
	at org.eclipse.aether.connector.basic.BasicRepositoryConnector$TaskRunner.run(BasicRepositoryConnector.java:355)
	at org.eclipse.aether.util.concurrency.RunnableErrorForwarder$1.run(RunnableErrorForwarder.java:67)
	at org.eclipse.aether.connector.basic.BasicRepositoryConnector$DirectExecutor.execute(BasicRepositoryConnector.java:581)
	at org.eclipse.aether.connector.basic.BasicRepositoryConnector.get(BasicRepositoryConnector.java:249)
	at org.eclipse.aether.internal.impl.DefaultArtifactResolver.performDownloads(DefaultArtifactResolver.java:520)
	at org.eclipse.aether.internal.impl.DefaultArtifactResolver.resolve(DefaultArtifactResolver.java:421)
	... 11 common frames omitted
Caused by: org.apache.http.conn.ConnectTimeoutException: Connect to nexus.xwiki.org:80 timed out
	at org.apache.http.conn.scheme.PlainSocketFactory.connectSocket(PlainSocketFactory.java:123)
	at org.apache.http.impl.conn.DefaultClientConnectionOperator.openConnection(DefaultClientConnectionOperator.java:180)
	at org.apache.http.impl.conn.ManagedClientConnectionImpl.open(ManagedClientConnectionImpl.java:326)
	at org.apache.http.impl.client.DefaultRequestDirector.tryConnect(DefaultRequestDirector.java:610)
	at org.apache.http.impl.client.DefaultRequestDirector.execute(DefaultRequestDirector.java:445)
	at org.apache.http.impl.client.AbstractHttpClient.doExecute(AbstractHttpClient.java:835)
	at org.apache.http.impl.client.CloseableHttpClient.execute(CloseableHttpClient.java:72)
	at org.apache.http.impl.client.CloseableHttpClient.execute(CloseableHttpClient.java:56)
	at org.apache.http.impl.client.DecompressingHttpClient.execute(DecompressingHttpClient.java:164)
	at org.eclipse.aether.transport.http.HttpTransporter.execute(HttpTransporter.java:318)
	at org.eclipse.aether.transport.http.HttpTransporter.implGet(HttpTransporter.java:274)
	at org.eclipse.aether.spi.connector.transport.AbstractTransporter.get(AbstractTransporter.java:59)
	at org.eclipse.aether.connector.basic.BasicRepositoryConnector$GetTaskRunner.runTask(BasicRepositoryConnector.java:447)
	at org.eclipse.aether.connector.basic.BasicRepositoryConnector$TaskRunner.run(BasicRepositoryConnector.java:350)
	... 16 common frames omitted
2019-07-18 11:11:34,864 [solr/indexer job group daemon thread - org.xwiki.search.solr.internal.job.IndexerJob@535918d7] INFO  o.x.s.s.i.j.IndexerJob         - Starting job of type [solr.indexer] with identifier [[solr, indexer]] 
2019-07-18 11:11:36,312 [solr/indexer job group daemon thread - org.xwiki.search.solr.internal.job.IndexerJob@535918d7] INFO  o.x.s.s.i.j.IndexerJob         - 0 documents added, 0 deleted and 0 updated during the synchronization of the Solr index. 
2019-07-18 11:11:36,312 [solr/indexer job group daemon thread - org.xwiki.search.solr.internal.job.IndexerJob@535918d7] INFO  o.x.s.s.i.j.IndexerJob         - Finished job of type [solr.indexer] with identifier [[solr, indexer]] 
2019-07-18 11:11:39,170 [Active Installs Ping Thread] WARN  a.i.c.ActiveInstallsPingThread - Failed to send Active Installation ping to [http://extensions.xwiki.org/activeinstalls]. Error = [ConnectException: A rede está fora de alcance (connect failed)]. Will retry in [86400] seconds... 
2019-07-18 11:13:36,752 [Core extension repository updater] ERROR aultExtensionRepositoryManager - Unexpected error when trying to find extension [org.eclipse.jetty:jetty-xml/9.4.8.v20171121] in repository [store.xwiki.com:xwiki:https://store.xwiki.com/xwiki/rest] 
org.xwiki.extension.ResolveException: Failed to create extension object for extension [org.eclipse.jetty:jetty-xml/9.4.8.v20171121]
	at org.xwiki.extension.repository.xwiki.internal.XWikiExtensionRepository.resolve(XWikiExtensionRepository.java:344)
	at org.xwiki.extension.repository.internal.DefaultExtensionRepositoryManager.resolve(DefaultExtensionRepositoryManager.java:286)
	at org.xwiki.extension.repository.internal.core.DefaultCoreExtensionScanner.updateExtensions(DefaultCoreExtensionScanner.java:116)
	at org.xwiki.extension.repository.internal.core.DefaultCoreExtensionRepository$1.run(DefaultCoreExtensionRepository.java:138)
	at java.lang.Thread.run(Thread.java:748)
Caused by: java.io.IOException: Failed to request [https://store.xwiki.com/xwiki/rest/repository/extensions/org.eclipse.jetty%3Ajetty-xml/versions/9.4.8.v20171121]
	at org.xwiki.extension.repository.xwiki.internal.XWikiExtensionRepository.getRESTResource(XWikiExtensionRepository.java:247)
	at org.xwiki.extension.repository.xwiki.internal.XWikiExtensionRepository.getRESTObject(XWikiExtensionRepository.java:305)
	at org.xwiki.extension.repository.xwiki.internal.XWikiExtensionRepository.resolve(XWikiExtensionRepository.java:350)
	at org.xwiki.extension.repository.xwiki.internal.XWikiExtensionRepository.resolve(XWikiExtensionRepository.java:340)
	... 4 common frames omitted
Caused by: org.apache.http.conn.HttpHostConnectException: Connect to store.xwiki.com:443 [store.xwiki.com/5.135.69.203] failed: Tempo esgotado para conexão (Connection timed out)
	at org.apache.http.impl.conn.DefaultHttpClientConnectionOperator.connect(DefaultHttpClientConnectionOperator.java:159)
	at org.apache.http.impl.conn.PoolingHttpClientConnectionManager.connect(PoolingHttpClientConnectionManager.java:373)
	at org.apache.http.impl.execchain.MainClientExec.establishRoute(MainClientExec.java:381)
	at org.apache.http.impl.execchain.MainClientExec.execute(MainClientExec.java:237)
	at org.apache.http.impl.execchain.ProtocolExec.execute(ProtocolExec.java:185)
	at org.apache.http.impl.execchain.RetryExec.execute(RetryExec.java:89)
	at org.apache.http.impl.execchain.RedirectExec.execute(RedirectExec.java:111)
	at org.apache.http.impl.client.InternalHttpClient.doExecute(InternalHttpClient.java:185)
	at org.apache.http.impl.client.CloseableHttpClient.execute(CloseableHttpClient.java:83)
	at org.apache.http.impl.client.CloseableHttpClient.execute(CloseableHttpClient.java:108)
	at org.xwiki.extension.repository.xwiki.internal.XWikiExtensionRepository.getRESTResource(XWikiExtensionRepository.java:244)
	... 7 common frames omitted
Caused by: java.net.ConnectException: Tempo esgotado para conexão (Connection timed out)
	at java.net.PlainSocketImpl.socketConnect(Native Method)
	at java.net.AbstractPlainSocketImpl.doConnect(AbstractPlainSocketImpl.java:350)
	at java.net.AbstractPlainSocketImpl.connectToAddress(AbstractPlainSocketImpl.java:206)
	at java.net.AbstractPlainSocketImpl.connect(AbstractPlainSocketImpl.java:188)
	at java.net.SocksSocketImpl.connect(SocksSocketImpl.java:392)
	at java.net.Socket.connect(Socket.java:589)
	at org.apache.http.conn.ssl.SSLConnectionSocketFactory.connectSocket(SSLConnectionSocketFactory.java:339)
	at org.apache.http.impl.conn.DefaultHttpClientConnectionOperator.connect(DefaultHttpClientConnectionOperator.java:142)
	... 17 common frames omitted
2019-07-18 11:16:07,711 [http://localhost:8080/xwiki/webjars/wiki%3Axwiki/bootstrap-daterangepicker/2.1.24/js/bootstrap-daterangepicker.js?r=1] ERROR ebJarsResourceReferenceHandler - Failed to read resource [bootstrap-daterangepicker/2.1.24/js/bootstrap-daterangepicker.js] 
org.xwiki.resource.ResourceReferenceHandlerException: Failed to read resource [bootstrap-daterangepicker/2.1.24/js/bootstrap-daterangepicker.js]
	at org.xwiki.resource.servlet.AbstractServletResourceReferenceHandler.serveResource(AbstractServletResourceReferenceHandler.java:180)
	at org.xwiki.resource.servlet.AbstractServletResourceReferenceHandler.handle(AbstractServletResourceReferenceHandler.java:85)
	at org.xwiki.resource.internal.DefaultResourceReferenceHandlerChain.handleNext(DefaultResourceReferenceHandlerChain.java:79)
	at org.xwiki.resource.internal.AbstractResourceReferenceHandlerManager.handle(AbstractResourceReferenceHandlerManager.java:82)
	at org.xwiki.resource.servlet.ResourceReferenceHandlerServlet.handleResourceReference(ResourceReferenceHandlerServlet.java:159)
	at org.xwiki.resource.servlet.ResourceReferenceHandlerServlet.service(ResourceReferenceHandlerServlet.java:87)
	at javax.servlet.http.HttpServlet.service(HttpServlet.java:790)
	at org.eclipse.jetty.servlet.ServletHolder.handle(ServletHolder.java:860)
	at org.eclipse.jetty.servlet.ServletHandler$CachedChain.doFilter(ServletHandler.java:1650)
	at org.xwiki.container.servlet.filters.internal.SetHTTPHeaderFilter.doFilter(SetHTTPHeaderFilter.java:63)
	at org.eclipse.jetty.servlet.ServletHandler$CachedChain.doFilter(ServletHandler.java:1637)
	at org.eclipse.jetty.servlet.ServletHandler.doHandle(ServletHandler.java:533)
	at org.eclipse.jetty.server.handler.ScopedHandler.handle(ScopedHandler.java:143)
	at org.eclipse.jetty.security.SecurityHandler.handle(SecurityHandler.java:566)
	at org.eclipse.jetty.server.handler.HandlerWrapper.handle(HandlerWrapper.java:132)
	at org.eclipse.jetty.server.handler.ScopedHandler.nextHandle(ScopedHandler.java:190)
	at org.eclipse.jetty.server.session.SessionHandler.doHandle(SessionHandler.java:1595)
	at org.eclipse.jetty.server.handler.ScopedHandler.nextHandle(ScopedHandler.java:188)
	at org.eclipse.jetty.server.handler.ContextHandler.doHandle(ContextHandler.java:1253)
	at org.eclipse.jetty.server.handler.ScopedHandler.nextScope(ScopedHandler.java:168)
	at org.eclipse.jetty.servlet.ServletHandler.doScope(ServletHandler.java:473)
	at org.eclipse.jetty.server.session.SessionHandler.doScope(SessionHandler.java:1564)
	at org.eclipse.jetty.server.handler.ScopedHandler.nextScope(ScopedHandler.java:166)
	at org.eclipse.jetty.server.handler.ContextHandler.doScope(ContextHandler.java:1155)
	at org.eclipse.jetty.server.handler.ScopedHandler.handle(ScopedHandler.java:141)
	at org.eclipse.jetty.server.Dispatcher.forward(Dispatcher.java:163)
	at org.eclipse.jetty.server.Dispatcher.forward(Dispatcher.java:73)
	at org.xwiki.resource.servlet.RoutingFilter.doFilter(RoutingFilter.java:147)
	at org.eclipse.jetty.servlet.ServletHandler$CachedChain.doFilter(ServletHandler.java:1629)
	at org.eclipse.jetty.servlet.ServletHandler.doHandle(ServletHandler.java:533)
	at org.eclipse.jetty.server.handler.ScopedHandler.handle(ScopedHandler.java:143)
	at org.eclipse.jetty.security.SecurityHandler.handle(SecurityHandler.java:548)
	at org.eclipse.jetty.server.handler.HandlerWrapper.handle(HandlerWrapper.java:132)
	at org.eclipse.jetty.server.handler.ScopedHandler.nextHandle(ScopedHandler.java:190)
	at org.eclipse.jetty.server.session.SessionHandler.doHandle(SessionHandler.java:1595)
	at org.eclipse.jetty.server.handler.ScopedHandler.nextHandle(ScopedHandler.java:188)
	at org.eclipse.jetty.server.handler.ContextHandler.doHandle(ContextHandler.java:1253)
	at org.eclipse.jetty.server.handler.ScopedHandler.nextScope(ScopedHandler.java:168)
	at org.eclipse.jetty.servlet.ServletHandler.doScope(ServletHandler.java:473)
	at org.eclipse.jetty.server.session.SessionHandler.doScope(SessionHandler.java:1564)
	at org.eclipse.jetty.server.handler.ScopedHandler.nextScope(ScopedHandler.java:166)
	at org.eclipse.jetty.server.handler.ContextHandler.doScope(ContextHandler.java:1155)
	at org.eclipse.jetty.server.handler.ScopedHandler.handle(ScopedHandler.java:141)
	at org.eclipse.jetty.server.handler.ContextHandlerCollection.handle(ContextHandlerCollection.java:219)
	at org.eclipse.jetty.server.handler.HandlerCollection.handle(HandlerCollection.java:126)
	at org.eclipse.jetty.server.handler.HandlerWrapper.handle(HandlerWrapper.java:132)
	at org.eclipse.jetty.server.Server.handle(Server.java:530)
	at org.eclipse.jetty.server.HttpChannel.handle(HttpChannel.java:347)
	at org.eclipse.jetty.server.HttpConnection.onFillable(HttpConnection.java:256)
	at org.eclipse.jetty.io.AbstractConnection$ReadCallback.succeeded(AbstractConnection.java:279)
	at org.eclipse.jetty.io.FillInterest.fillable(FillInterest.java:102)
	at org.eclipse.jetty.io.ChannelEndPoint$2.run(ChannelEndPoint.java:124)
	at org.eclipse.jetty.util.thread.strategy.EatWhatYouKill.doProduce(EatWhatYouKill.java:247)
	at org.eclipse.jetty.util.thread.strategy.EatWhatYouKill.produce(EatWhatYouKill.java:140)
	at org.eclipse.jetty.util.thread.strategy.EatWhatYouKill.run(EatWhatYouKill.java:131)
	at org.eclipse.jetty.util.thread.ReservedThreadExecutor$ReservedThread.run(ReservedThreadExecutor.java:382)
	at org.eclipse.jetty.util.thread.QueuedThreadPool.runJob(QueuedThreadPool.java:708)
	at org.eclipse.jetty.util.thread.QueuedThreadPool$2.run(QueuedThreadPool.java:626)
	at java.lang.Thread.run(Thread.java:748)
Caused by: org.eclipse.jetty.io.EofException: null
	at org.eclipse.jetty.io.ChannelEndPoint.flush(ChannelEndPoint.java:292)
	at org.eclipse.jetty.io.WriteFlusher.flush(WriteFlusher.java:429)
	at org.eclipse.jetty.io.WriteFlusher.write(WriteFlusher.java:322)
	at org.eclipse.jetty.io.AbstractEndPoint.write(AbstractEndPoint.java:372)
	at org.eclipse.jetty.server.HttpConnection$SendCallback.process(HttpConnection.java:794)
	at org.eclipse.jetty.util.IteratingCallback.processing(IteratingCallback.java:241)
	at org.eclipse.jetty.util.IteratingCallback.iterate(IteratingCallback.java:224)
	at org.eclipse.jetty.server.HttpConnection.send(HttpConnection.java:528)
	at org.eclipse.jetty.server.HttpChannel.sendResponse(HttpChannel.java:783)
	at org.eclipse.jetty.server.HttpChannel.write(HttpChannel.java:834)
	at org.eclipse.jetty.server.HttpOutput.write(HttpOutput.java:234)
	at org.eclipse.jetty.server.HttpOutput.write(HttpOutput.java:218)
	at org.eclipse.jetty.server.HttpOutput.write(HttpOutput.java:509)
	at org.apache.commons.io.IOUtils.copyLarge(IOUtils.java:2315)
	at org.apache.commons.io.IOUtils.copy(IOUtils.java:2270)
	at org.apache.commons.io.IOUtils.copyLarge(IOUtils.java:2291)
	at org.apache.commons.io.IOUtils.copy(IOUtils.java:2246)
	at org.xwiki.resource.servlet.AbstractServletResourceReferenceHandler.serveResource(AbstractServletResourceReferenceHandler.java:178)
	... 58 common frames omitted
Caused by: java.io.IOException: Pipe quebrado
	at sun.nio.ch.FileDispatcherImpl.writev0(Native Method)
	at sun.nio.ch.SocketDispatcher.writev(SocketDispatcher.java:51)
	at sun.nio.ch.IOUtil.write(IOUtil.java:148)
	at sun.nio.ch.SocketChannelImpl.write(SocketChannelImpl.java:504)
	at org.eclipse.jetty.io.ChannelEndPoint.flush(ChannelEndPoint.java:272)
	... 75 common frames omitted
2019-07-18 11:16:07,814 [http://localhost:8080/xwiki/webjars/wiki%3Axwiki/momentjs/2.18.1/moment.js?r=1] ERROR ebJarsResourceReferenceHandler - Failed to read resource [momentjs/2.18.1/moment.js] 
org.xwiki.resource.ResourceReferenceHandlerException: Failed to read resource [momentjs/2.18.1/moment.js]
	at org.xwiki.resource.servlet.AbstractServletResourceReferenceHandler.serveResource(AbstractServletResourceReferenceHandler.java:180)
	at org.xwiki.resource.servlet.AbstractServletResourceReferenceHandler.handle(AbstractServletResourceReferenceHandler.java:85)
	at org.xwiki.resource.internal.DefaultResourceReferenceHandlerChain.handleNext(DefaultResourceReferenceHandlerChain.java:79)
	at org.xwiki.resource.internal.AbstractResourceReferenceHandlerManager.handle(AbstractResourceReferenceHandlerManager.java:82)
	at org.xwiki.resource.servlet.ResourceReferenceHandlerServlet.handleResourceReference(ResourceReferenceHandlerServlet.java:159)
	at org.xwiki.resource.servlet.ResourceReferenceHandlerServlet.service(ResourceReferenceHandlerServlet.java:87)
	at javax.servlet.http.HttpServlet.service(HttpServlet.java:790)
	at org.eclipse.jetty.servlet.ServletHolder.handle(ServletHolder.java:860)
	at org.eclipse.jetty.servlet.ServletHandler$CachedChain.doFilter(ServletHandler.java:1650)
	at org.xwiki.container.servlet.filters.internal.SetHTTPHeaderFilter.doFilter(SetHTTPHeaderFilter.java:63)
	at org.eclipse.jetty.servlet.ServletHandler$CachedChain.doFilter(ServletHandler.java:1637)
	at org.eclipse.jetty.servlet.ServletHandler.doHandle(ServletHandler.java:533)
	at org.eclipse.jetty.server.handler.ScopedHandler.handle(ScopedHandler.java:143)
	at org.eclipse.jetty.security.SecurityHandler.handle(SecurityHandler.java:566)
	at org.eclipse.jetty.server.handler.HandlerWrapper.handle(HandlerWrapper.java:132)
	at org.eclipse.jetty.server.handler.ScopedHandler.nextHandle(ScopedHandler.java:190)
	at org.eclipse.jetty.server.session.SessionHandler.doHandle(SessionHandler.java:1595)
	at org.eclipse.jetty.server.handler.ScopedHandler.nextHandle(ScopedHandler.java:188)
	at org.eclipse.jetty.server.handler.ContextHandler.doHandle(ContextHandler.java:1253)
	at org.eclipse.jetty.server.handler.ScopedHandler.nextScope(ScopedHandler.java:168)
	at org.eclipse.jetty.servlet.ServletHandler.doScope(ServletHandler.java:473)
	at org.eclipse.jetty.server.session.SessionHandler.doScope(SessionHandler.java:1564)
	at org.eclipse.jetty.server.handler.ScopedHandler.nextScope(ScopedHandler.java:166)
	at org.eclipse.jetty.server.handler.ContextHandler.doScope(ContextHandler.java:1155)
	at org.eclipse.jetty.server.handler.ScopedHandler.handle(ScopedHandler.java:141)
	at org.eclipse.jetty.server.Dispatcher.forward(Dispatcher.java:163)
	at org.eclipse.jetty.server.Dispatcher.forward(Dispatcher.java:73)
	at org.xwiki.resource.servlet.RoutingFilter.doFilter(RoutingFilter.java:147)
	at org.eclipse.jetty.servlet.ServletHandler$CachedChain.doFilter(ServletHandler.java:1629)
	at org.eclipse.jetty.servlet.ServletHandler.doHandle(ServletHandler.java:533)
	at org.eclipse.jetty.server.handler.ScopedHandler.handle(ScopedHandler.java:143)
	at org.eclipse.jetty.security.SecurityHandler.handle(SecurityHandler.java:548)
	at org.eclipse.jetty.server.handler.HandlerWrapper.handle(HandlerWrapper.java:132)
	at org.eclipse.jetty.server.handler.ScopedHandler.nextHandle(ScopedHandler.java:190)
	at org.eclipse.jetty.server.session.SessionHandler.doHandle(SessionHandler.java:1595)
	at org.eclipse.jetty.server.handler.ScopedHandler.nextHandle(ScopedHandler.java:188)
	at org.eclipse.jetty.server.handler.ContextHandler.doHandle(ContextHandler.java:1253)
	at org.eclipse.jetty.server.handler.ScopedHandler.nextScope(ScopedHandler.java:168)
	at org.eclipse.jetty.servlet.ServletHandler.doScope(ServletHandler.java:473)
	at org.eclipse.jetty.server.session.SessionHandler.doScope(SessionHandler.java:1564)
	at org.eclipse.jetty.server.handler.ScopedHandler.nextScope(ScopedHandler.java:166)
	at org.eclipse.jetty.server.handler.ContextHandler.doScope(ContextHandler.java:1155)
	at org.eclipse.jetty.server.handler.ScopedHandler.handle(ScopedHandler.java:141)
	at org.eclipse.jetty.server.handler.ContextHandlerCollection.handle(ContextHandlerCollection.java:219)
	at org.eclipse.jetty.server.handler.HandlerCollection.handle(HandlerCollection.java:126)
	at org.eclipse.jetty.server.handler.HandlerWrapper.handle(HandlerWrapper.java:132)
	at org.eclipse.jetty.server.Server.handle(Server.java:530)
	at org.eclipse.jetty.server.HttpChannel.handle(HttpChannel.java:347)
	at org.eclipse.jetty.server.HttpConnection.onFillable(HttpConnection.java:256)
	at org.eclipse.jetty.io.AbstractConnection$ReadCallback.succeeded(AbstractConnection.java:279)
	at org.eclipse.jetty.io.FillInterest.fillable(FillInterest.java:102)
	at org.eclipse.jetty.io.ChannelEndPoint$2.run(ChannelEndPoint.java:124)
	at org.eclipse.jetty.util.thread.strategy.EatWhatYouKill.doProduce(EatWhatYouKill.java:247)
	at org.eclipse.jetty.util.thread.strategy.EatWhatYouKill.produce(EatWhatYouKill.java:140)
	at org.eclipse.jetty.util.thread.strategy.EatWhatYouKill.run(EatWhatYouKill.java:131)
	at org.eclipse.jetty.util.thread.ReservedThreadExecutor$ReservedThread.run(ReservedThreadExecutor.java:382)
	at org.eclipse.jetty.util.thread.QueuedThreadPool.runJob(QueuedThreadPool.java:708)
	at org.eclipse.jetty.util.thread.QueuedThreadPool$2.run(QueuedThreadPool.java:626)
	at java.lang.Thread.run(Thread.java:748)
Caused by: org.eclipse.jetty.io.EofException: null
	at org.eclipse.jetty.io.ChannelEndPoint.flush(ChannelEndPoint.java:292)
	at org.eclipse.jetty.io.WriteFlusher.flush(WriteFlusher.java:429)
	at org.eclipse.jetty.io.WriteFlusher.write(WriteFlusher.java:322)
	at org.eclipse.jetty.io.AbstractEndPoint.write(AbstractEndPoint.java:372)
	at org.eclipse.jetty.server.HttpConnection$SendCallback.process(HttpConnection.java:794)
	at org.eclipse.jetty.util.IteratingCallback.processing(IteratingCallback.java:241)
	at org.eclipse.jetty.util.IteratingCallback.iterate(IteratingCallback.java:224)
	at org.eclipse.jetty.server.HttpConnection.send(HttpConnection.java:528)
	at org.eclipse.jetty.server.HttpChannel.sendResponse(HttpChannel.java:783)
	at org.eclipse.jetty.server.HttpChannel.write(HttpChannel.java:834)
	at org.eclipse.jetty.server.HttpOutput.write(HttpOutput.java:234)
	at org.eclipse.jetty.server.HttpOutput.write(HttpOutput.java:218)
	at org.eclipse.jetty.server.HttpOutput.write(HttpOutput.java:509)
	at org.apache.commons.io.IOUtils.copyLarge(IOUtils.java:2315)
	at org.apache.commons.io.IOUtils.copy(IOUtils.java:2270)
	at org.apache.commons.io.IOUtils.copyLarge(IOUtils.java:2291)
	at org.apache.commons.io.IOUtils.copy(IOUtils.java:2246)
	at org.xwiki.resource.servlet.AbstractServletResourceReferenceHandler.serveResource(AbstractServletResourceReferenceHandler.java:178)
	... 58 common frames omitted
Caused by: java.io.IOException: Pipe quebrado
	at sun.nio.ch.FileDispatcherImpl.writev0(Native Method)
	at sun.nio.ch.SocketDispatcher.writev(SocketDispatcher.java:51)
	at sun.nio.ch.IOUtil.write(IOUtil.java:148)
	at sun.nio.ch.SocketChannelImpl.write(SocketChannelImpl.java:504)
	at org.eclipse.jetty.io.ChannelEndPoint.flush(ChannelEndPoint.java:272)
	... 75 common frames omitted
2019-07-18 11:19:10.928:INFO:oxtjl.NotifyListener:Thread-1: ----------------------------------
2019-07-18 11:19:10.939:INFO:oxtjl.NotifyListener:Thread-1: Server stopping, please wait while all resources are closed...
2019-07-18 11:19:10.946:INFO:oejs.AbstractConnector:Thread-1: Stopped ServerConnector@281028ce{HTTP/1.1,[http/1.1]}{0.0.0.0:8080}
2019-07-18 11:19:10.947:INFO:oejs.session:Thread-1: Stopped scavenging
2019-07-18 11:19:10.951:INFO:oejsh.ContextHandler:Thread-1: Stopped o.e.j.w.WebAppContext@322593ed{/,null,UNAVAILABLE}{/root}
2019-07-18 11:19:57.979:INFO:oejsh.ContextHandler:Thread-1: Stopped o.e.j.w.WebAppContext@10bdf5e5{/xwiki,null,UNAVAILABLE}{/xwiki}
2019-07-18 11:19:57.985:INFO:oxtjl.NotifyListener:Thread-1: Done!
